# DUSTEM: definition of grain populations
# for each grain TYPE make sure you have the following files
# Q_TYPE.DAT in code_f90/les_QABS
# C_TYPE.DAT in code_f90/les_CAPA
# 
# run keywords: temp - res_a - pdr or none
# G0 scaling factor for radiation field
# nr of grain types
# grain type -  Mdust/MH - rho(g/cm3) - amin(cm) - amax(cm) - alpha - nsize - keyword
# type keyword: 
# mix  (uses MIX_TYPE.DAT in code_f90/les_DAT)
# size (uses SIZE_TYPE.DAT in code_f90/les_DAT)
#
none
1.00E+00
5
PAH0_MC		7.40E-04  2.24E+00  4.40E-08  8.50E-08 -1.00E+00  10  MIX
PAH1_MC 	7.40E-04  2.24E+00  4.40E-08  8.50E-08 -1.00E+00  10  MIX
amCBE1		5.00E-04  1.81E+00  4.00E-08  4.50E-07 -1.00E+00  20  NONE
amCBE1      	1.50E-03  1.81E+00  3.00E-07  2.00E-05 -3.00E+00  20  NONE
aSil            5.50E-03  3.50E+00  4.00E-07  2.70E-05 -3.00E+00  20  NONE
