# Heat Capacity of amorphous carbon
# Debye model with theta=2200 K
#
# nr of values 
# log T(K)	  log C(erg/cm3/K) 
#
30
-1.0000e+00  2.4928e+00
-8.3797e-01  2.9549e+00
-6.7593e-01  3.1660e+00
-5.1390e-01  3.3771e+00
-3.5187e-01  3.5882e+00
-1.8983e-01  3.7994e+00
-2.7799e-02  4.0105e+00
 1.3423e-01  4.2216e+00
 2.9627e-01  4.4327e+00
 4.5830e-01  4.6438e+00
 6.2033e-01  4.8549e+00
 7.8237e-01  5.0660e+00
 9.4440e-01  5.2771e+00
 1.1064e+00  5.4882e+00
 1.2685e+00  5.6994e+00
 1.4305e+00  5.9105e+00
 1.5925e+00  6.1216e+00
 1.7546e+00  6.3327e+00
 1.9166e+00  6.5438e+00
 2.0786e+00  6.7547e+00
 2.2407e+00  6.9619e+00
 2.4027e+00  7.1512e+00
 2.5647e+00  7.3037e+00
 2.7268e+00  7.4111e+00
 2.8888e+00  7.4780e+00
 3.0508e+00  7.5157e+00
 3.2129e+00  7.5353e+00
 3.3749e+00  7.5451e+00
 3.5369e+00  7.5499e+00
 3.6990e+00  7.5533e+00

