# DUSTEM: heat capacity for PAHs merged with VSGs
# from C_PAH.DAT and C_amC.DAT
#
# nr of sizes ns
# sizes (microns)
# nr of T-values
# log T(K) log C_1...log C_ns (erg/K/cm3)
 56
  2.9964E-04  3.1134E-04  3.2349E-04  3.3612E-04  3.4924E-04  3.6287E-04  3.7704E-04  3.9175E-04  4.0704E-04  4.2293E-04  4.3944E-04  4.5659E-04  4.7442E-04  4.9293E-04  5.1218E-04  5.3217E-04  5.5294E-04  5.7452E-04  5.9695E-04  6.2025E-04  6.4446E-04  6.6961E-04  6.9575E-04  7.2291E-04  7.5155E-04  1.0215E-03  1.3876E-03  1.8848E-03  2.5604E-03  3.4780E-03  4.7245E-03  6.4177E-03  8.7178E-03  1.1842E-02  1.6086E-02  2.1852E-02  2.9683E-02  4.0321E-02  5.4772E-02  7.4402E-02  1.0107E-01  1.3729E-01  1.8649E-01  2.5333E-01  3.4412E-01  4.6746E-01  6.3499E-01  8.6257E-01  1.1717E+00  1.5916E+00  2.1621E+00  2.9370E+00  3.9895E+00  5.4194E+00  7.3616E+00  1.0000E+01
 30
-1.0000E+00  4.9058E-01  4.9107E-01  4.9118E-01  4.9134E-01  4.9158E-01  4.9196E-01  4.9257E-01  4.9360E-01  4.9542E-01  4.9884E-01  5.0564E-01  5.2011E-01  5.5300E-01  6.3188E-01  8.2316E-01  1.2315E+00  1.8201E+00  2.2628E+00  2.4379E+00  2.4827E+00  2.4913E+00  2.4926E+00  2.4928E+00  2.4928E+00  2.4928E+00  2.4928E+00  2.4928E+00  2.4928E+00  2.4928E+00  2.4928E+00  2.4928E+00  2.4928E+00  2.4928E+00  2.4928E+00  2.4928E+00  2.4928E+00  2.4928E+00  2.4928E+00  2.4928E+00  2.4928E+00  2.4928E+00  2.4928E+00  2.4928E+00  2.4928E+00  2.4928E+00  2.4928E+00  2.4928E+00  2.4928E+00  2.4928E+00  2.4928E+00  2.4928E+00  2.4928E+00  2.4928E+00  2.4928E+00  2.4928E+00  2.4928E+00
-8.3797E-01  9.1451E-01  9.1507E-01  9.1519E-01  9.1535E-01  9.1560E-01  9.1598E-01  9.1660E-01  9.1765E-01  9.1951E-01  9.2299E-01  9.2993E-01  9.4467E-01  9.7818E-01  1.0586E+00  1.2535E+00  1.6696E+00  2.2694E+00  2.7206E+00  2.8990E+00  2.9446E+00  2.9534E+00  2.9547E+00  2.9549E+00  2.9549E+00  2.9549E+00  2.9549E+00  2.9549E+00  2.9549E+00  2.9549E+00  2.9549E+00  2.9549E+00  2.9549E+00  2.9549E+00  2.9549E+00  2.9549E+00  2.9549E+00  2.9549E+00  2.9549E+00  2.9549E+00  2.9549E+00  2.9549E+00  2.9549E+00  2.9549E+00  2.9549E+00  2.9549E+00  2.9549E+00  2.9549E+00  2.9549E+00  2.9549E+00  2.9549E+00  2.9549E+00  2.9549E+00  2.9549E+00  2.9549E+00  2.9549E+00  2.9549E+00
-6.7593E-01  1.2385E+00  1.2391E+00  1.2392E+00  1.2394E+00  1.2396E+00  1.2400E+00  1.2405E+00  1.2415E+00  1.2433E+00  1.2466E+00  1.2531E+00  1.2670E+00  1.2987E+00  1.3746E+00  1.5588E+00  1.9519E+00  2.5184E+00  2.9446E+00  3.1132E+00  3.1563E+00  3.1646E+00  3.1658E+00  3.1660E+00  3.1660E+00  3.1660E+00  3.1660E+00  3.1660E+00  3.1660E+00  3.1660E+00  3.1660E+00  3.1660E+00  3.1660E+00  3.1660E+00  3.1660E+00  3.1660E+00  3.1660E+00  3.1660E+00  3.1660E+00  3.1660E+00  3.1660E+00  3.1660E+00  3.1660E+00  3.1660E+00  3.1660E+00  3.1660E+00  3.1660E+00  3.1660E+00  3.1660E+00  3.1660E+00  3.1660E+00  3.1660E+00  3.1660E+00  3.1660E+00  3.1660E+00  3.1660E+00  3.1660E+00
-5.1390E-01  1.5624E+00  1.5631E+00  1.5632E+00  1.5633E+00  1.5635E+00  1.5639E+00  1.5644E+00  1.5654E+00  1.5670E+00  1.5701E+00  1.5763E+00  1.5894E+00  1.6192E+00  1.6907E+00  1.8640E+00  2.2341E+00  2.7675E+00  3.1687E+00  3.3274E+00  3.3679E+00  3.3758E+00  3.3769E+00  3.3771E+00  3.3771E+00  3.3771E+00  3.3771E+00  3.3771E+00  3.3771E+00  3.3771E+00  3.3771E+00  3.3771E+00  3.3771E+00  3.3771E+00  3.3771E+00  3.3771E+00  3.3771E+00  3.3771E+00  3.3771E+00  3.3771E+00  3.3771E+00  3.3771E+00  3.3771E+00  3.3771E+00  3.3771E+00  3.3771E+00  3.3771E+00  3.3771E+00  3.3771E+00  3.3771E+00  3.3771E+00  3.3771E+00  3.3771E+00  3.3771E+00  3.3771E+00  3.3771E+00  3.3771E+00
-3.5187E-01  1.8864E+00  1.8870E+00  1.8871E+00  1.8873E+00  1.8875E+00  1.8878E+00  1.8883E+00  1.8892E+00  1.8907E+00  1.8936E+00  1.8994E+00  1.9117E+00  1.9397E+00  2.0067E+00  2.1693E+00  2.5163E+00  3.0165E+00  3.3928E+00  3.5416E+00  3.5796E+00  3.5869E+00  3.5881E+00  3.5882E+00  3.5882E+00  3.5882E+00  3.5882E+00  3.5882E+00  3.5882E+00  3.5882E+00  3.5882E+00  3.5882E+00  3.5882E+00  3.5882E+00  3.5882E+00  3.5882E+00  3.5882E+00  3.5882E+00  3.5882E+00  3.5882E+00  3.5882E+00  3.5882E+00  3.5882E+00  3.5882E+00  3.5882E+00  3.5882E+00  3.5882E+00  3.5882E+00  3.5882E+00  3.5882E+00  3.5882E+00  3.5882E+00  3.5882E+00  3.5882E+00  3.5882E+00  3.5882E+00  3.5882E+00
-1.8983E-01  2.2103E+00  2.2110E+00  2.2111E+00  2.2112E+00  2.2114E+00  2.2117E+00  2.2122E+00  2.2130E+00  2.2145E+00  2.2172E+00  2.2226E+00  2.2341E+00  2.2602E+00  2.3228E+00  2.4745E+00  2.7986E+00  3.2656E+00  3.6169E+00  3.7559E+00  3.7914E+00  3.7982E+00  3.7993E+00  3.7994E+00  3.7994E+00  3.7994E+00  3.7994E+00  3.7994E+00  3.7994E+00  3.7994E+00  3.7994E+00  3.7994E+00  3.7994E+00  3.7994E+00  3.7994E+00  3.7994E+00  3.7994E+00  3.7994E+00  3.7994E+00  3.7994E+00  3.7994E+00  3.7994E+00  3.7994E+00  3.7994E+00  3.7994E+00  3.7994E+00  3.7994E+00  3.7994E+00  3.7994E+00  3.7994E+00  3.7994E+00  3.7994E+00  3.7994E+00  3.7994E+00  3.7994E+00  3.7994E+00  3.7994E+00
-2.7799E-02  2.5343E+00  2.5350E+00  2.5351E+00  2.5352E+00  2.5354E+00  2.5357E+00  2.5361E+00  2.5369E+00  2.5382E+00  2.5407E+00  2.5457E+00  2.5564E+00  2.5806E+00  2.6388E+00  2.7798E+00  3.0808E+00  3.5146E+00  3.8410E+00  3.9701E+00  4.0030E+00  4.0094E+00  4.0104E+00  4.0105E+00  4.0105E+00  4.0105E+00  4.0105E+00  4.0105E+00  4.0105E+00  4.0105E+00  4.0105E+00  4.0105E+00  4.0105E+00  4.0105E+00  4.0105E+00  4.0105E+00  4.0105E+00  4.0105E+00  4.0105E+00  4.0105E+00  4.0105E+00  4.0105E+00  4.0105E+00  4.0105E+00  4.0105E+00  4.0105E+00  4.0105E+00  4.0105E+00  4.0105E+00  4.0105E+00  4.0105E+00  4.0105E+00  4.0105E+00  4.0105E+00  4.0105E+00  4.0105E+00  4.0105E+00
 1.3423E-01  2.8582E+00  2.8590E+00  2.8591E+00  2.8592E+00  2.8593E+00  2.8596E+00  2.8600E+00  2.8607E+00  2.8619E+00  2.8643E+00  2.8689E+00  2.8787E+00  2.9011E+00  2.9548E+00  3.0850E+00  3.3630E+00  3.7637E+00  4.0651E+00  4.1842E+00  4.2147E+00  4.2206E+00  4.2215E+00  4.2216E+00  4.2216E+00  4.2216E+00  4.2216E+00  4.2216E+00  4.2216E+00  4.2216E+00  4.2216E+00  4.2216E+00  4.2216E+00  4.2216E+00  4.2216E+00  4.2216E+00  4.2216E+00  4.2216E+00  4.2216E+00  4.2216E+00  4.2216E+00  4.2216E+00  4.2216E+00  4.2216E+00  4.2216E+00  4.2216E+00  4.2216E+00  4.2216E+00  4.2216E+00  4.2216E+00  4.2216E+00  4.2216E+00  4.2216E+00  4.2216E+00  4.2216E+00  4.2216E+00  4.2216E+00
 2.9627E-01  3.1822E+00  3.1830E+00  3.1830E+00  3.1831E+00  3.1833E+00  3.1835E+00  3.1839E+00  3.1845E+00  3.1857E+00  3.1878E+00  3.1921E+00  3.2011E+00  3.2216E+00  3.2709E+00  3.3903E+00  3.6452E+00  4.0127E+00  4.2891E+00  4.3984E+00  4.4264E+00  4.4318E+00  4.4326E+00  4.4327E+00  4.4327E+00  4.4327E+00  4.4327E+00  4.4327E+00  4.4327E+00  4.4327E+00  4.4327E+00  4.4327E+00  4.4327E+00  4.4327E+00  4.4327E+00  4.4327E+00  4.4327E+00  4.4327E+00  4.4327E+00  4.4327E+00  4.4327E+00  4.4327E+00  4.4327E+00  4.4327E+00  4.4327E+00  4.4327E+00  4.4327E+00  4.4327E+00  4.4327E+00  4.4327E+00  4.4327E+00  4.4327E+00  4.4327E+00  4.4327E+00  4.4327E+00  4.4327E+00  4.4327E+00
 4.5830E-01  3.5061E+00  3.5069E+00  3.5070E+00  3.5071E+00  3.5072E+00  3.5074E+00  3.5078E+00  3.5084E+00  3.5094E+00  3.5113E+00  3.5152E+00  3.5234E+00  3.5421E+00  3.5869E+00  3.6955E+00  3.9275E+00  4.2617E+00  4.5132E+00  4.6126E+00  4.6380E+00  4.6430E+00  4.6437E+00  4.6438E+00  4.6438E+00  4.6438E+00  4.6438E+00  4.6438E+00  4.6438E+00  4.6438E+00  4.6438E+00  4.6438E+00  4.6438E+00  4.6438E+00  4.6438E+00  4.6438E+00  4.6438E+00  4.6438E+00  4.6438E+00  4.6438E+00  4.6438E+00  4.6438E+00  4.6438E+00  4.6438E+00  4.6438E+00  4.6438E+00  4.6438E+00  4.6438E+00  4.6438E+00  4.6438E+00  4.6438E+00  4.6438E+00  4.6438E+00  4.6438E+00  4.6438E+00  4.6438E+00  4.6438E+00
 6.2033E-01  3.8301E+00  3.8309E+00  3.8310E+00  3.8310E+00  3.8312E+00  3.8314E+00  3.8317E+00  3.8322E+00  3.8331E+00  3.8349E+00  3.8384E+00  3.8458E+00  3.8626E+00  3.9029E+00  4.0008E+00  4.2097E+00  4.5108E+00  4.7373E+00  4.8268E+00  4.8497E+00  4.8541E+00  4.8548E+00  4.8549E+00  4.8549E+00  4.8549E+00  4.8549E+00  4.8549E+00  4.8549E+00  4.8549E+00  4.8549E+00  4.8549E+00  4.8549E+00  4.8549E+00  4.8549E+00  4.8549E+00  4.8549E+00  4.8549E+00  4.8549E+00  4.8549E+00  4.8549E+00  4.8549E+00  4.8549E+00  4.8549E+00  4.8549E+00  4.8549E+00  4.8549E+00  4.8549E+00  4.8549E+00  4.8549E+00  4.8549E+00  4.8549E+00  4.8549E+00  4.8549E+00  4.8549E+00  4.8549E+00  4.8549E+00
 7.8237E-01  4.1540E+00  4.1549E+00  4.1549E+00  4.1550E+00  4.1551E+00  4.1553E+00  4.1556E+00  4.1560E+00  4.1569E+00  4.1584E+00  4.1615E+00  4.1681E+00  4.1831E+00  4.2190E+00  4.3060E+00  4.4919E+00  4.7598E+00  4.9613E+00  5.0410E+00  5.0614E+00  5.0653E+00  5.0659E+00  5.0660E+00  5.0660E+00  5.0660E+00  5.0660E+00  5.0660E+00  5.0660E+00  5.0660E+00  5.0660E+00  5.0660E+00  5.0660E+00  5.0660E+00  5.0660E+00  5.0660E+00  5.0660E+00  5.0660E+00  5.0660E+00  5.0660E+00  5.0660E+00  5.0660E+00  5.0660E+00  5.0660E+00  5.0660E+00  5.0660E+00  5.0660E+00  5.0660E+00  5.0660E+00  5.0660E+00  5.0660E+00  5.0660E+00  5.0660E+00  5.0660E+00  5.0660E+00  5.0660E+00  5.0660E+00
 9.4440E-01  4.4780E+00  4.4789E+00  4.4789E+00  4.4790E+00  4.4791E+00  4.4792E+00  4.4795E+00  4.4799E+00  4.4806E+00  4.4820E+00  4.4847E+00  4.4904E+00  4.5036E+00  4.5350E+00  4.6113E+00  4.7741E+00  5.0088E+00  5.1854E+00  5.2552E+00  5.2731E+00  5.2765E+00  5.2770E+00  5.2771E+00  5.2771E+00  5.2771E+00  5.2771E+00  5.2771E+00  5.2771E+00  5.2771E+00  5.2771E+00  5.2771E+00  5.2771E+00  5.2771E+00  5.2771E+00  5.2771E+00  5.2771E+00  5.2771E+00  5.2771E+00  5.2771E+00  5.2771E+00  5.2771E+00  5.2771E+00  5.2771E+00  5.2771E+00  5.2771E+00  5.2771E+00  5.2771E+00  5.2771E+00  5.2771E+00  5.2771E+00  5.2771E+00  5.2771E+00  5.2771E+00  5.2771E+00  5.2771E+00  5.2771E+00
 1.1064E+00  4.8019E+00  4.8028E+00  4.8029E+00  4.8029E+00  4.8030E+00  4.8031E+00  4.8034E+00  4.8037E+00  4.8043E+00  4.8055E+00  4.8078E+00  4.8128E+00  4.8240E+00  4.8511E+00  4.9165E+00  5.0564E+00  5.2579E+00  5.4095E+00  5.4694E+00  5.4847E+00  5.4877E+00  5.4881E+00  5.4882E+00  5.4882E+00  5.4882E+00  5.4882E+00  5.4882E+00  5.4882E+00  5.4882E+00  5.4882E+00  5.4882E+00  5.4882E+00  5.4882E+00  5.4882E+00  5.4882E+00  5.4882E+00  5.4882E+00  5.4882E+00  5.4882E+00  5.4882E+00  5.4882E+00  5.4882E+00  5.4882E+00  5.4882E+00  5.4882E+00  5.4882E+00  5.4882E+00  5.4882E+00  5.4882E+00  5.4882E+00  5.4882E+00  5.4882E+00  5.4882E+00  5.4882E+00  5.4882E+00  5.4882E+00
 1.2685E+00  5.1269E+00  5.1278E+00  5.1278E+00  5.1279E+00  5.1280E+00  5.1281E+00  5.1282E+00  5.1285E+00  5.1291E+00  5.1300E+00  5.1320E+00  5.1361E+00  5.1455E+00  5.1680E+00  5.2226E+00  5.3392E+00  5.5073E+00  5.6337E+00  5.6837E+00  5.6965E+00  5.6990E+00  5.6994E+00  5.6994E+00  5.6994E+00  5.6994E+00  5.6994E+00  5.6994E+00  5.6994E+00  5.6994E+00  5.6994E+00  5.6994E+00  5.6994E+00  5.6994E+00  5.6994E+00  5.6994E+00  5.6994E+00  5.6994E+00  5.6994E+00  5.6994E+00  5.6994E+00  5.6994E+00  5.6994E+00  5.6994E+00  5.6994E+00  5.6994E+00  5.6994E+00  5.6994E+00  5.6994E+00  5.6994E+00  5.6994E+00  5.6994E+00  5.6994E+00  5.6994E+00  5.6994E+00  5.6994E+00  5.6994E+00
 1.4305E+00  5.4508E+00  5.4518E+00  5.4518E+00  5.4519E+00  5.4519E+00  5.4520E+00  5.4521E+00  5.4524E+00  5.4528E+00  5.4536E+00  5.4551E+00  5.4584E+00  5.4660E+00  5.4841E+00  5.5279E+00  5.6215E+00  5.7563E+00  5.8578E+00  5.8979E+00  5.9082E+00  5.9102E+00  5.9105E+00  5.9105E+00  5.9105E+00  5.9105E+00  5.9105E+00  5.9105E+00  5.9105E+00  5.9105E+00  5.9105E+00  5.9105E+00  5.9105E+00  5.9105E+00  5.9105E+00  5.9105E+00  5.9105E+00  5.9105E+00  5.9105E+00  5.9105E+00  5.9105E+00  5.9105E+00  5.9105E+00  5.9105E+00  5.9105E+00  5.9105E+00  5.9105E+00  5.9105E+00  5.9105E+00  5.9105E+00  5.9105E+00  5.9105E+00  5.9105E+00  5.9105E+00  5.9105E+00  5.9105E+00  5.9105E+00
 1.5925E+00  5.7748E+00  5.7758E+00  5.7758E+00  5.7758E+00  5.7759E+00  5.7759E+00  5.7760E+00  5.7762E+00  5.7765E+00  5.7771E+00  5.7783E+00  5.7808E+00  5.7865E+00  5.8001E+00  5.8331E+00  5.9037E+00  6.0054E+00  6.0819E+00  6.1121E+00  6.1199E+00  6.1213E+00  6.1216E+00  6.1216E+00  6.1216E+00  6.1216E+00  6.1216E+00  6.1216E+00  6.1216E+00  6.1216E+00  6.1216E+00  6.1216E+00  6.1216E+00  6.1216E+00  6.1216E+00  6.1216E+00  6.1216E+00  6.1216E+00  6.1216E+00  6.1216E+00  6.1216E+00  6.1216E+00  6.1216E+00  6.1216E+00  6.1216E+00  6.1216E+00  6.1216E+00  6.1216E+00  6.1216E+00  6.1216E+00  6.1216E+00  6.1216E+00  6.1216E+00  6.1216E+00  6.1216E+00  6.1216E+00  6.1216E+00
 1.7546E+00  6.0977E+00  6.0987E+00  6.0988E+00  6.0988E+00  6.0988E+00  6.0989E+00  6.0989E+00  6.0990E+00  6.0993E+00  6.0997E+00  6.1005E+00  6.1021E+00  6.1060E+00  6.1152E+00  6.1376E+00  6.1853E+00  6.2541E+00  6.3058E+00  6.3263E+00  6.3315E+00  6.3325E+00  6.3327E+00  6.3327E+00  6.3327E+00  6.3327E+00  6.3327E+00  6.3327E+00  6.3327E+00  6.3327E+00  6.3327E+00  6.3327E+00  6.3327E+00  6.3327E+00  6.3327E+00  6.3327E+00  6.3327E+00  6.3327E+00  6.3327E+00  6.3327E+00  6.3327E+00  6.3327E+00  6.3327E+00  6.3327E+00  6.3327E+00  6.3327E+00  6.3327E+00  6.3327E+00  6.3327E+00  6.3327E+00  6.3327E+00  6.3327E+00  6.3327E+00  6.3327E+00  6.3327E+00  6.3327E+00  6.3327E+00
 1.9166E+00  6.4163E+00  6.4172E+00  6.4172E+00  6.4171E+00  6.4172E+00  6.4172E+00  6.4171E+00  6.4172E+00  6.4173E+00  6.4174E+00  6.4178E+00  6.4188E+00  6.4209E+00  6.4259E+00  6.4379E+00  6.4638E+00  6.5011E+00  6.5292E+00  6.5403E+00  6.5432E+00  6.5437E+00  6.5438E+00  6.5438E+00  6.5438E+00  6.5438E+00  6.5438E+00  6.5438E+00  6.5438E+00  6.5438E+00  6.5438E+00  6.5438E+00  6.5438E+00  6.5438E+00  6.5438E+00  6.5438E+00  6.5438E+00  6.5438E+00  6.5438E+00  6.5438E+00  6.5438E+00  6.5438E+00  6.5438E+00  6.5438E+00  6.5438E+00  6.5438E+00  6.5438E+00  6.5438E+00  6.5438E+00  6.5438E+00  6.5438E+00  6.5438E+00  6.5438E+00  6.5438E+00  6.5438E+00  6.5438E+00  6.5438E+00
 2.0786E+00  6.7162E+00  6.7167E+00  6.7162E+00  6.7157E+00  6.7153E+00  6.7149E+00  6.7145E+00  6.7143E+00  6.7140E+00  6.7138E+00  6.7136E+00  6.7137E+00  6.7142E+00  6.7157E+00  6.7195E+00  6.7280E+00  6.7404E+00  6.7498E+00  6.7535E+00  6.7545E+00  6.7547E+00  6.7547E+00  6.7547E+00  6.7547E+00  6.7547E+00  6.7547E+00  6.7547E+00  6.7547E+00  6.7547E+00  6.7547E+00  6.7547E+00  6.7547E+00  6.7547E+00  6.7547E+00  6.7547E+00  6.7547E+00  6.7547E+00  6.7547E+00  6.7547E+00  6.7547E+00  6.7547E+00  6.7547E+00  6.7547E+00  6.7547E+00  6.7547E+00  6.7547E+00  6.7547E+00  6.7547E+00  6.7547E+00  6.7547E+00  6.7547E+00  6.7547E+00  6.7547E+00  6.7547E+00  6.7547E+00  6.7547E+00
 2.2407E+00  6.9878E+00  6.9864E+00  6.9841E+00  6.9821E+00  6.9801E+00  6.9784E+00  6.9768E+00  6.9753E+00  6.9740E+00  6.9727E+00  6.9715E+00  6.9705E+00  6.9694E+00  6.9683E+00  6.9670E+00  6.9652E+00  6.9635E+00  6.9624E+00  6.9620E+00  6.9619E+00  6.9619E+00  6.9619E+00  6.9619E+00  6.9619E+00  6.9619E+00  6.9619E+00  6.9619E+00  6.9619E+00  6.9619E+00  6.9619E+00  6.9619E+00  6.9619E+00  6.9619E+00  6.9619E+00  6.9619E+00  6.9619E+00  6.9619E+00  6.9619E+00  6.9619E+00  6.9619E+00  6.9619E+00  6.9619E+00  6.9619E+00  6.9619E+00  6.9619E+00  6.9619E+00  6.9619E+00  6.9619E+00  6.9619E+00  6.9619E+00  6.9619E+00  6.9619E+00  6.9619E+00  6.9619E+00  6.9619E+00  6.9619E+00
 2.4027E+00  7.2310E+00  7.2264E+00  7.2210E+00  7.2161E+00  7.2115E+00  7.2073E+00  7.2034E+00  7.1997E+00  7.1964E+00  7.1933E+00  7.1904E+00  7.1877E+00  7.1847E+00  7.1814E+00  7.1766E+00  7.1693E+00  7.1603E+00  7.1541E+00  7.1519E+00  7.1513E+00  7.1512E+00  7.1512E+00  7.1512E+00  7.1512E+00  7.1512E+00  7.1512E+00  7.1512E+00  7.1512E+00  7.1512E+00  7.1512E+00  7.1512E+00  7.1512E+00  7.1512E+00  7.1512E+00  7.1512E+00  7.1512E+00  7.1512E+00  7.1512E+00  7.1512E+00  7.1512E+00  7.1512E+00  7.1512E+00  7.1512E+00  7.1512E+00  7.1512E+00  7.1512E+00  7.1512E+00  7.1512E+00  7.1512E+00  7.1512E+00  7.1512E+00  7.1512E+00  7.1512E+00  7.1512E+00  7.1512E+00  7.1512E+00
 2.5647E+00  7.4392E+00  7.4313E+00  7.4229E+00  7.4151E+00  7.4078E+00  7.4009E+00  7.3947E+00  7.3889E+00  7.3834E+00  7.3784E+00  7.3737E+00  7.3690E+00  7.3642E+00  7.3584E+00  7.3501E+00  7.3368E+00  7.3204E+00  7.3091E+00  7.3049E+00  7.3039E+00  7.3037E+00  7.3037E+00  7.3037E+00  7.3037E+00  7.3037E+00  7.3037E+00  7.3037E+00  7.3037E+00  7.3037E+00  7.3037E+00  7.3037E+00  7.3037E+00  7.3037E+00  7.3037E+00  7.3037E+00  7.3037E+00  7.3037E+00  7.3037E+00  7.3037E+00  7.3037E+00  7.3037E+00  7.3037E+00  7.3037E+00  7.3037E+00  7.3037E+00  7.3037E+00  7.3037E+00  7.3037E+00  7.3037E+00  7.3037E+00  7.3037E+00  7.3037E+00  7.3037E+00  7.3037E+00  7.3037E+00  7.3037E+00
 2.7268E+00  7.6002E+00  7.5902E+00  7.5798E+00  7.5699E+00  7.5608E+00  7.5523E+00  7.5444E+00  7.5370E+00  7.5302E+00  7.5237E+00  7.5176E+00  7.5115E+00  7.5050E+00  7.4970E+00  7.4846E+00  7.4641E+00  7.4382E+00  7.4200E+00  7.4131E+00  7.4115E+00  7.4112E+00  7.4111E+00  7.4111E+00  7.4111E+00  7.4111E+00  7.4111E+00  7.4111E+00  7.4111E+00  7.4111E+00  7.4111E+00  7.4111E+00  7.4111E+00  7.4111E+00  7.4111E+00  7.4111E+00  7.4111E+00  7.4111E+00  7.4111E+00  7.4111E+00  7.4111E+00  7.4111E+00  7.4111E+00  7.4111E+00  7.4111E+00  7.4111E+00  7.4111E+00  7.4111E+00  7.4111E+00  7.4111E+00  7.4111E+00  7.4111E+00  7.4111E+00  7.4111E+00  7.4111E+00  7.4111E+00  7.4111E+00
 2.8888E+00  7.7136E+00  7.7024E+00  7.6907E+00  7.6797E+00  7.6695E+00  7.6599E+00  7.6509E+00  7.6427E+00  7.6348E+00  7.6274E+00  7.6203E+00  7.6133E+00  7.6055E+00  7.5955E+00  7.5793E+00  7.5518E+00  7.5160E+00  7.4905E+00  7.4809E+00  7.4785E+00  7.4781E+00  7.4780E+00  7.4780E+00  7.4780E+00  7.4780E+00  7.4780E+00  7.4780E+00  7.4780E+00  7.4780E+00  7.4780E+00  7.4780E+00  7.4780E+00  7.4780E+00  7.4780E+00  7.4780E+00  7.4780E+00  7.4780E+00  7.4780E+00  7.4780E+00  7.4780E+00  7.4780E+00  7.4780E+00  7.4780E+00  7.4780E+00  7.4780E+00  7.4780E+00  7.4780E+00  7.4780E+00  7.4780E+00  7.4780E+00  7.4780E+00  7.4780E+00  7.4780E+00  7.4780E+00  7.4780E+00  7.4780E+00
 3.0508E+00  7.7881E+00  7.7758E+00  7.7631E+00  7.7512E+00  7.7400E+00  7.7295E+00  7.7197E+00  7.7105E+00  7.7019E+00  7.6938E+00  7.6859E+00  7.6780E+00  7.6692E+00  7.6575E+00  7.6385E+00  7.6053E+00  7.5620E+00  7.5310E+00  7.5193E+00  7.5163E+00  7.5158E+00  7.5157E+00  7.5157E+00  7.5157E+00  7.5157E+00  7.5157E+00  7.5157E+00  7.5157E+00  7.5157E+00  7.5157E+00  7.5157E+00  7.5157E+00  7.5157E+00  7.5157E+00  7.5157E+00  7.5157E+00  7.5157E+00  7.5157E+00  7.5157E+00  7.5157E+00  7.5157E+00  7.5157E+00  7.5157E+00  7.5157E+00  7.5157E+00  7.5157E+00  7.5157E+00  7.5157E+00  7.5157E+00  7.5157E+00  7.5157E+00  7.5157E+00  7.5157E+00  7.5157E+00  7.5157E+00  7.5157E+00
 3.2129E+00  7.8362E+00  7.8230E+00  7.8095E+00  7.7967E+00  7.7848E+00  7.7735E+00  7.7630E+00  7.7531E+00  7.7438E+00  7.7350E+00  7.7265E+00  7.7179E+00  7.7081E+00  7.6953E+00  7.6740E+00  7.6367E+00  7.5877E+00  7.5527E+00  7.5393E+00  7.5360E+00  7.5354E+00  7.5353E+00  7.5353E+00  7.5353E+00  7.5353E+00  7.5353E+00  7.5353E+00  7.5353E+00  7.5353E+00  7.5353E+00  7.5353E+00  7.5353E+00  7.5353E+00  7.5353E+00  7.5353E+00  7.5353E+00  7.5353E+00  7.5353E+00  7.5353E+00  7.5353E+00  7.5353E+00  7.5353E+00  7.5353E+00  7.5353E+00  7.5353E+00  7.5353E+00  7.5353E+00  7.5353E+00  7.5353E+00  7.5353E+00  7.5353E+00  7.5353E+00  7.5353E+00  7.5353E+00  7.5353E+00  7.5353E+00
 3.3749E+00  7.8636E+00  7.8498E+00  7.8356E+00  7.8223E+00  7.8097E+00  7.7979E+00  7.7868E+00  7.7764E+00  7.7666E+00  7.7572E+00  7.7483E+00  7.7391E+00  7.7289E+00  7.7152E+00  7.6926E+00  7.6529E+00  7.6008E+00  7.5636E+00  7.5494E+00  7.5459E+00  7.5452E+00  7.5451E+00  7.5451E+00  7.5451E+00  7.5451E+00  7.5451E+00  7.5451E+00  7.5451E+00  7.5451E+00  7.5451E+00  7.5451E+00  7.5451E+00  7.5451E+00  7.5451E+00  7.5451E+00  7.5451E+00  7.5451E+00  7.5451E+00  7.5451E+00  7.5451E+00  7.5451E+00  7.5451E+00  7.5451E+00  7.5451E+00  7.5451E+00  7.5451E+00  7.5451E+00  7.5451E+00  7.5451E+00  7.5451E+00  7.5451E+00  7.5451E+00  7.5451E+00  7.5451E+00  7.5451E+00  7.5451E+00
 3.5369E+00  7.8783E+00  7.8641E+00  7.8496E+00  7.8359E+00  7.8230E+00  7.8108E+00  7.7995E+00  7.7887E+00  7.7786E+00  7.7690E+00  7.7597E+00  7.7503E+00  7.7397E+00  7.7256E+00  7.7022E+00  7.6612E+00  7.6075E+00  7.5690E+00  7.5543E+00  7.5507E+00  7.5500E+00  7.5499E+00  7.5499E+00  7.5499E+00  7.5499E+00  7.5499E+00  7.5499E+00  7.5499E+00  7.5499E+00  7.5499E+00  7.5499E+00  7.5499E+00  7.5499E+00  7.5499E+00  7.5499E+00  7.5499E+00  7.5499E+00  7.5499E+00  7.5499E+00  7.5499E+00  7.5499E+00  7.5499E+00  7.5499E+00  7.5499E+00  7.5499E+00  7.5499E+00  7.5499E+00  7.5499E+00  7.5499E+00  7.5499E+00  7.5499E+00  7.5499E+00  7.5499E+00  7.5499E+00  7.5499E+00  7.5499E+00
 3.6990E+00  7.8899E+00  7.8754E+00  7.8606E+00  7.8466E+00  7.8334E+00  7.8210E+00  7.8094E+00  7.7983E+00  7.7879E+00  7.7782E+00  7.7686E+00  7.7589E+00  7.7481E+00  7.7336E+00  7.7096E+00  7.6676E+00  7.6123E+00  7.5729E+00  7.5578E+00  7.5541E+00  7.5534E+00  7.5533E+00  7.5533E+00  7.5533E+00  7.5533E+00  7.5533E+00  7.5533E+00  7.5533E+00  7.5533E+00  7.5533E+00  7.5533E+00  7.5533E+00  7.5533E+00  7.5533E+00  7.5533E+00  7.5533E+00  7.5533E+00  7.5533E+00  7.5533E+00  7.5533E+00  7.5533E+00  7.5533E+00  7.5533E+00  7.5533E+00  7.5533E+00  7.5533E+00  7.5533E+00  7.5533E+00  7.5533E+00  7.5533E+00  7.5533E+00  7.5533E+00  7.5533E+00  7.5533E+00  7.5533E+00  7.5533E+00
