# DUSTEM: heat capacity for PAHs merged with VSGs
# from C_PA.DAT and C_amC.DAT
#
# nr of sizes ns
# sizes (microns)
# nr of T-values
# log T(K) log C_1...log C_ns (erg/K/cm3)
 56
  2.9964E-04  3.1134E-04  3.2349E-04  3.3612E-04  3.4924E-04  3.6287E-04  3.7704E-04  3.9175E-04  4.0704E-04  4.2293E-04  4.3944E-04  4.5659E-04  4.7442E-04  4.9293E-04  5.1218E-04  5.3217E-04  5.5294E-04  5.7452E-04  5.9695E-04  6.2025E-04  6.4446E-04  6.6961E-04  6.9575E-04  7.2291E-04  7.5155E-04  1.0215E-03  1.3876E-03  1.8848E-03  2.5604E-03  3.4780E-03  4.7245E-03  6.4177E-03  8.7178E-03  1.1842E-02  1.6086E-02  2.1852E-02  2.9683E-02  4.0321E-02  5.4772E-02  7.4402E-02  1.0107E-01  1.3729E-01  1.8649E-01  2.5333E-01  3.4412E-01  4.6746E-01  6.3499E-01  8.6257E-01  1.1717E+00  1.5916E+00  2.1621E+00  2.9370E+00  3.9895E+00  5.4194E+00  7.3616E+00  1.0000E+01
 30
-1.0000E+00  4.9058E-01  4.9107E-01  4.9118E-01  4.9134E-01  4.9158E-01  4.9196E-01  4.9257E-01  4.9360E-01  4.9542E-01  4.9884E-01  5.0564E-01  5.2011E-01  5.5300E-01  6.3188E-01  8.2316E-01  1.2315E+00  1.8201E+00  2.2628E+00  2.4379E+00  2.4827E+00  2.4913E+00  2.4926E+00  2.4928E+00  2.4928E+00  2.4928E+00  2.4928E+00  2.4928E+00  2.4928E+00  2.4928E+00  2.4928E+00  2.4928E+00  2.4928E+00  2.4928E+00  2.4928E+00  2.4928E+00  2.4928E+00  2.4928E+00  2.4928E+00  2.4928E+00  2.4928E+00  2.4928E+00  2.4928E+00  2.4928E+00  2.4928E+00  2.4928E+00  2.4928E+00  2.4928E+00  2.4928E+00  2.4928E+00  2.4928E+00  2.4928E+00  2.4928E+00  2.4928E+00  2.4928E+00  2.4928E+00  2.4928E+00
-8.3797E-01  9.1451E-01  9.1507E-01  9.1519E-01  9.1535E-01  9.1560E-01  9.1598E-01  9.1660E-01  9.1765E-01  9.1951E-01  9.2299E-01  9.2993E-01  9.4467E-01  9.7818E-01  1.0586E+00  1.2535E+00  1.6696E+00  2.2694E+00  2.7206E+00  2.8990E+00  2.9446E+00  2.9534E+00  2.9547E+00  2.9549E+00  2.9549E+00  2.9549E+00  2.9549E+00  2.9549E+00  2.9549E+00  2.9549E+00  2.9549E+00  2.9549E+00  2.9549E+00  2.9549E+00  2.9549E+00  2.9549E+00  2.9549E+00  2.9549E+00  2.9549E+00  2.9549E+00  2.9549E+00  2.9549E+00  2.9549E+00  2.9549E+00  2.9549E+00  2.9549E+00  2.9549E+00  2.9549E+00  2.9549E+00  2.9549E+00  2.9549E+00  2.9549E+00  2.9549E+00  2.9549E+00  2.9549E+00  2.9549E+00  2.9549E+00
-6.7593E-01  1.2385E+00  1.2391E+00  1.2392E+00  1.2394E+00  1.2396E+00  1.2400E+00  1.2405E+00  1.2415E+00  1.2433E+00  1.2466E+00  1.2531E+00  1.2670E+00  1.2987E+00  1.3746E+00  1.5588E+00  1.9519E+00  2.5184E+00  2.9446E+00  3.1132E+00  3.1563E+00  3.1646E+00  3.1658E+00  3.1660E+00  3.1660E+00  3.1660E+00  3.1660E+00  3.1660E+00  3.1660E+00  3.1660E+00  3.1660E+00  3.1660E+00  3.1660E+00  3.1660E+00  3.1660E+00  3.1660E+00  3.1660E+00  3.1660E+00  3.1660E+00  3.1660E+00  3.1660E+00  3.1660E+00  3.1660E+00  3.1660E+00  3.1660E+00  3.1660E+00  3.1660E+00  3.1660E+00  3.1660E+00  3.1660E+00  3.1660E+00  3.1660E+00  3.1660E+00  3.1660E+00  3.1660E+00  3.1660E+00  3.1660E+00
-5.1390E-01  1.5624E+00  1.5631E+00  1.5632E+00  1.5633E+00  1.5635E+00  1.5639E+00  1.5644E+00  1.5654E+00  1.5670E+00  1.5701E+00  1.5763E+00  1.5894E+00  1.6192E+00  1.6907E+00  1.8640E+00  2.2341E+00  2.7675E+00  3.1687E+00  3.3274E+00  3.3679E+00  3.3758E+00  3.3769E+00  3.3771E+00  3.3771E+00  3.3771E+00  3.3771E+00  3.3771E+00  3.3771E+00  3.3771E+00  3.3771E+00  3.3771E+00  3.3771E+00  3.3771E+00  3.3771E+00  3.3771E+00  3.3771E+00  3.3771E+00  3.3771E+00  3.3771E+00  3.3771E+00  3.3771E+00  3.3771E+00  3.3771E+00  3.3771E+00  3.3771E+00  3.3771E+00  3.3771E+00  3.3771E+00  3.3771E+00  3.3771E+00  3.3771E+00  3.3771E+00  3.3771E+00  3.3771E+00  3.3771E+00  3.3771E+00
-3.5187E-01  1.8864E+00  1.8870E+00  1.8871E+00  1.8873E+00  1.8875E+00  1.8878E+00  1.8883E+00  1.8892E+00  1.8907E+00  1.8936E+00  1.8994E+00  1.9117E+00  1.9397E+00  2.0067E+00  2.1693E+00  2.5163E+00  3.0165E+00  3.3928E+00  3.5416E+00  3.5796E+00  3.5869E+00  3.5881E+00  3.5882E+00  3.5882E+00  3.5882E+00  3.5882E+00  3.5882E+00  3.5882E+00  3.5882E+00  3.5882E+00  3.5882E+00  3.5882E+00  3.5882E+00  3.5882E+00  3.5882E+00  3.5882E+00  3.5882E+00  3.5882E+00  3.5882E+00  3.5882E+00  3.5882E+00  3.5882E+00  3.5882E+00  3.5882E+00  3.5882E+00  3.5882E+00  3.5882E+00  3.5882E+00  3.5882E+00  3.5882E+00  3.5882E+00  3.5882E+00  3.5882E+00  3.5882E+00  3.5882E+00  3.5882E+00
-1.8983E-01  2.2103E+00  2.2110E+00  2.2111E+00  2.2112E+00  2.2114E+00  2.2117E+00  2.2122E+00  2.2130E+00  2.2145E+00  2.2172E+00  2.2226E+00  2.2341E+00  2.2602E+00  2.3228E+00  2.4745E+00  2.7986E+00  3.2656E+00  3.6169E+00  3.7559E+00  3.7914E+00  3.7982E+00  3.7993E+00  3.7994E+00  3.7994E+00  3.7994E+00  3.7994E+00  3.7994E+00  3.7994E+00  3.7994E+00  3.7994E+00  3.7994E+00  3.7994E+00  3.7994E+00  3.7994E+00  3.7994E+00  3.7994E+00  3.7994E+00  3.7994E+00  3.7994E+00  3.7994E+00  3.7994E+00  3.7994E+00  3.7994E+00  3.7994E+00  3.7994E+00  3.7994E+00  3.7994E+00  3.7994E+00  3.7994E+00  3.7994E+00  3.7994E+00  3.7994E+00  3.7994E+00  3.7994E+00  3.7994E+00  3.7994E+00
-2.7799E-02  2.5343E+00  2.5350E+00  2.5351E+00  2.5352E+00  2.5354E+00  2.5357E+00  2.5361E+00  2.5369E+00  2.5382E+00  2.5407E+00  2.5457E+00  2.5564E+00  2.5806E+00  2.6388E+00  2.7798E+00  3.0808E+00  3.5146E+00  3.8410E+00  3.9701E+00  4.0030E+00  4.0094E+00  4.0104E+00  4.0105E+00  4.0105E+00  4.0105E+00  4.0105E+00  4.0105E+00  4.0105E+00  4.0105E+00  4.0105E+00  4.0105E+00  4.0105E+00  4.0105E+00  4.0105E+00  4.0105E+00  4.0105E+00  4.0105E+00  4.0105E+00  4.0105E+00  4.0105E+00  4.0105E+00  4.0105E+00  4.0105E+00  4.0105E+00  4.0105E+00  4.0105E+00  4.0105E+00  4.0105E+00  4.0105E+00  4.0105E+00  4.0105E+00  4.0105E+00  4.0105E+00  4.0105E+00  4.0105E+00  4.0105E+00
 1.3423E-01  2.8582E+00  2.8590E+00  2.8591E+00  2.8592E+00  2.8593E+00  2.8596E+00  2.8600E+00  2.8607E+00  2.8619E+00  2.8643E+00  2.8689E+00  2.8787E+00  2.9011E+00  2.9548E+00  3.0850E+00  3.3630E+00  3.7637E+00  4.0651E+00  4.1842E+00  4.2147E+00  4.2206E+00  4.2215E+00  4.2216E+00  4.2216E+00  4.2216E+00  4.2216E+00  4.2216E+00  4.2216E+00  4.2216E+00  4.2216E+00  4.2216E+00  4.2216E+00  4.2216E+00  4.2216E+00  4.2216E+00  4.2216E+00  4.2216E+00  4.2216E+00  4.2216E+00  4.2216E+00  4.2216E+00  4.2216E+00  4.2216E+00  4.2216E+00  4.2216E+00  4.2216E+00  4.2216E+00  4.2216E+00  4.2216E+00  4.2216E+00  4.2216E+00  4.2216E+00  4.2216E+00  4.2216E+00  4.2216E+00  4.2216E+00
 2.9627E-01  3.1822E+00  3.1830E+00  3.1830E+00  3.1831E+00  3.1833E+00  3.1835E+00  3.1839E+00  3.1845E+00  3.1857E+00  3.1878E+00  3.1921E+00  3.2011E+00  3.2216E+00  3.2709E+00  3.3903E+00  3.6452E+00  4.0127E+00  4.2891E+00  4.3984E+00  4.4264E+00  4.4318E+00  4.4326E+00  4.4327E+00  4.4327E+00  4.4327E+00  4.4327E+00  4.4327E+00  4.4327E+00  4.4327E+00  4.4327E+00  4.4327E+00  4.4327E+00  4.4327E+00  4.4327E+00  4.4327E+00  4.4327E+00  4.4327E+00  4.4327E+00  4.4327E+00  4.4327E+00  4.4327E+00  4.4327E+00  4.4327E+00  4.4327E+00  4.4327E+00  4.4327E+00  4.4327E+00  4.4327E+00  4.4327E+00  4.4327E+00  4.4327E+00  4.4327E+00  4.4327E+00  4.4327E+00  4.4327E+00  4.4327E+00
 4.5830E-01  3.5061E+00  3.5069E+00  3.5070E+00  3.5071E+00  3.5072E+00  3.5074E+00  3.5078E+00  3.5084E+00  3.5094E+00  3.5113E+00  3.5152E+00  3.5234E+00  3.5421E+00  3.5869E+00  3.6955E+00  3.9275E+00  4.2617E+00  4.5132E+00  4.6126E+00  4.6380E+00  4.6430E+00  4.6437E+00  4.6438E+00  4.6438E+00  4.6438E+00  4.6438E+00  4.6438E+00  4.6438E+00  4.6438E+00  4.6438E+00  4.6438E+00  4.6438E+00  4.6438E+00  4.6438E+00  4.6438E+00  4.6438E+00  4.6438E+00  4.6438E+00  4.6438E+00  4.6438E+00  4.6438E+00  4.6438E+00  4.6438E+00  4.6438E+00  4.6438E+00  4.6438E+00  4.6438E+00  4.6438E+00  4.6438E+00  4.6438E+00  4.6438E+00  4.6438E+00  4.6438E+00  4.6438E+00  4.6438E+00  4.6438E+00
 6.2033E-01  3.8301E+00  3.8309E+00  3.8310E+00  3.8310E+00  3.8312E+00  3.8314E+00  3.8317E+00  3.8322E+00  3.8331E+00  3.8349E+00  3.8384E+00  3.8458E+00  3.8626E+00  3.9029E+00  4.0008E+00  4.2097E+00  4.5108E+00  4.7373E+00  4.8268E+00  4.8497E+00  4.8541E+00  4.8548E+00  4.8549E+00  4.8549E+00  4.8549E+00  4.8549E+00  4.8549E+00  4.8549E+00  4.8549E+00  4.8549E+00  4.8549E+00  4.8549E+00  4.8549E+00  4.8549E+00  4.8549E+00  4.8549E+00  4.8549E+00  4.8549E+00  4.8549E+00  4.8549E+00  4.8549E+00  4.8549E+00  4.8549E+00  4.8549E+00  4.8549E+00  4.8549E+00  4.8549E+00  4.8549E+00  4.8549E+00  4.8549E+00  4.8549E+00  4.8549E+00  4.8549E+00  4.8549E+00  4.8549E+00  4.8549E+00
 7.8237E-01  4.1540E+00  4.1549E+00  4.1549E+00  4.1550E+00  4.1551E+00  4.1553E+00  4.1556E+00  4.1560E+00  4.1569E+00  4.1584E+00  4.1615E+00  4.1681E+00  4.1831E+00  4.2190E+00  4.3060E+00  4.4919E+00  4.7598E+00  4.9613E+00  5.0410E+00  5.0614E+00  5.0653E+00  5.0659E+00  5.0660E+00  5.0660E+00  5.0660E+00  5.0660E+00  5.0660E+00  5.0660E+00  5.0660E+00  5.0660E+00  5.0660E+00  5.0660E+00  5.0660E+00  5.0660E+00  5.0660E+00  5.0660E+00  5.0660E+00  5.0660E+00  5.0660E+00  5.0660E+00  5.0660E+00  5.0660E+00  5.0660E+00  5.0660E+00  5.0660E+00  5.0660E+00  5.0660E+00  5.0660E+00  5.0660E+00  5.0660E+00  5.0660E+00  5.0660E+00  5.0660E+00  5.0660E+00  5.0660E+00  5.0660E+00
 9.4440E-01  4.4780E+00  4.4789E+00  4.4789E+00  4.4790E+00  4.4791E+00  4.4792E+00  4.4795E+00  4.4799E+00  4.4806E+00  4.4820E+00  4.4847E+00  4.4904E+00  4.5036E+00  4.5350E+00  4.6113E+00  4.7741E+00  5.0088E+00  5.1854E+00  5.2552E+00  5.2731E+00  5.2765E+00  5.2770E+00  5.2771E+00  5.2771E+00  5.2771E+00  5.2771E+00  5.2771E+00  5.2771E+00  5.2771E+00  5.2771E+00  5.2771E+00  5.2771E+00  5.2771E+00  5.2771E+00  5.2771E+00  5.2771E+00  5.2771E+00  5.2771E+00  5.2771E+00  5.2771E+00  5.2771E+00  5.2771E+00  5.2771E+00  5.2771E+00  5.2771E+00  5.2771E+00  5.2771E+00  5.2771E+00  5.2771E+00  5.2771E+00  5.2771E+00  5.2771E+00  5.2771E+00  5.2771E+00  5.2771E+00  5.2771E+00
 1.1064E+00  4.8019E+00  4.8028E+00  4.8029E+00  4.8029E+00  4.8030E+00  4.8031E+00  4.8034E+00  4.8037E+00  4.8043E+00  4.8055E+00  4.8078E+00  4.8128E+00  4.8240E+00  4.8511E+00  4.9165E+00  5.0564E+00  5.2579E+00  5.4095E+00  5.4694E+00  5.4847E+00  5.4877E+00  5.4881E+00  5.4882E+00  5.4882E+00  5.4882E+00  5.4882E+00  5.4882E+00  5.4882E+00  5.4882E+00  5.4882E+00  5.4882E+00  5.4882E+00  5.4882E+00  5.4882E+00  5.4882E+00  5.4882E+00  5.4882E+00  5.4882E+00  5.4882E+00  5.4882E+00  5.4882E+00  5.4882E+00  5.4882E+00  5.4882E+00  5.4882E+00  5.4882E+00  5.4882E+00  5.4882E+00  5.4882E+00  5.4882E+00  5.4882E+00  5.4882E+00  5.4882E+00  5.4882E+00  5.4882E+00  5.4882E+00
 1.2685E+00  5.1269E+00  5.1278E+00  5.1278E+00  5.1279E+00  5.1280E+00  5.1281E+00  5.1282E+00  5.1285E+00  5.1291E+00  5.1300E+00  5.1320E+00  5.1361E+00  5.1455E+00  5.1680E+00  5.2226E+00  5.3392E+00  5.5073E+00  5.6337E+00  5.6837E+00  5.6965E+00  5.6990E+00  5.6994E+00  5.6994E+00  5.6994E+00  5.6994E+00  5.6994E+00  5.6994E+00  5.6994E+00  5.6994E+00  5.6994E+00  5.6994E+00  5.6994E+00  5.6994E+00  5.6994E+00  5.6994E+00  5.6994E+00  5.6994E+00  5.6994E+00  5.6994E+00  5.6994E+00  5.6994E+00  5.6994E+00  5.6994E+00  5.6994E+00  5.6994E+00  5.6994E+00  5.6994E+00  5.6994E+00  5.6994E+00  5.6994E+00  5.6994E+00  5.6994E+00  5.6994E+00  5.6994E+00  5.6994E+00  5.6994E+00
 1.4305E+00  5.4508E+00  5.4518E+00  5.4518E+00  5.4519E+00  5.4519E+00  5.4520E+00  5.4521E+00  5.4524E+00  5.4528E+00  5.4536E+00  5.4551E+00  5.4584E+00  5.4660E+00  5.4841E+00  5.5279E+00  5.6215E+00  5.7563E+00  5.8578E+00  5.8979E+00  5.9082E+00  5.9102E+00  5.9105E+00  5.9105E+00  5.9105E+00  5.9105E+00  5.9105E+00  5.9105E+00  5.9105E+00  5.9105E+00  5.9105E+00  5.9105E+00  5.9105E+00  5.9105E+00  5.9105E+00  5.9105E+00  5.9105E+00  5.9105E+00  5.9105E+00  5.9105E+00  5.9105E+00  5.9105E+00  5.9105E+00  5.9105E+00  5.9105E+00  5.9105E+00  5.9105E+00  5.9105E+00  5.9105E+00  5.9105E+00  5.9105E+00  5.9105E+00  5.9105E+00  5.9105E+00  5.9105E+00  5.9105E+00  5.9105E+00
 1.5925E+00  5.7748E+00  5.7758E+00  5.7758E+00  5.7758E+00  5.7759E+00  5.7759E+00  5.7760E+00  5.7762E+00  5.7765E+00  5.7771E+00  5.7783E+00  5.7808E+00  5.7865E+00  5.8001E+00  5.8331E+00  5.9037E+00  6.0054E+00  6.0819E+00  6.1121E+00  6.1199E+00  6.1213E+00  6.1216E+00  6.1216E+00  6.1216E+00  6.1216E+00  6.1216E+00  6.1216E+00  6.1216E+00  6.1216E+00  6.1216E+00  6.1216E+00  6.1216E+00  6.1216E+00  6.1216E+00  6.1216E+00  6.1216E+00  6.1216E+00  6.1216E+00  6.1216E+00  6.1216E+00  6.1216E+00  6.1216E+00  6.1216E+00  6.1216E+00  6.1216E+00  6.1216E+00  6.1216E+00  6.1216E+00  6.1216E+00  6.1216E+00  6.1216E+00  6.1216E+00  6.1216E+00  6.1216E+00  6.1216E+00  6.1216E+00
 1.7546E+00  6.0977E+00  6.0987E+00  6.0988E+00  6.0988E+00  6.0988E+00  6.0989E+00  6.0989E+00  6.0990E+00  6.0993E+00  6.0997E+00  6.1005E+00  6.1021E+00  6.1060E+00  6.1152E+00  6.1376E+00  6.1853E+00  6.2541E+00  6.3058E+00  6.3263E+00  6.3315E+00  6.3325E+00  6.3327E+00  6.3327E+00  6.3327E+00  6.3327E+00  6.3327E+00  6.3327E+00  6.3327E+00  6.3327E+00  6.3327E+00  6.3327E+00  6.3327E+00  6.3327E+00  6.3327E+00  6.3327E+00  6.3327E+00  6.3327E+00  6.3327E+00  6.3327E+00  6.3327E+00  6.3327E+00  6.3327E+00  6.3327E+00  6.3327E+00  6.3327E+00  6.3327E+00  6.3327E+00  6.3327E+00  6.3327E+00  6.3327E+00  6.3327E+00  6.3327E+00  6.3327E+00  6.3327E+00  6.3327E+00  6.3327E+00
 1.9166E+00  6.4157E+00  6.4167E+00  6.4167E+00  6.4167E+00  6.4168E+00  6.4168E+00  6.4168E+00  6.4169E+00  6.4170E+00  6.4172E+00  6.4177E+00  6.4186E+00  6.4207E+00  6.4257E+00  6.4378E+00  6.4637E+00  6.5011E+00  6.5292E+00  6.5403E+00  6.5432E+00  6.5437E+00  6.5438E+00  6.5438E+00  6.5438E+00  6.5438E+00  6.5438E+00  6.5438E+00  6.5438E+00  6.5438E+00  6.5438E+00  6.5438E+00  6.5438E+00  6.5438E+00  6.5438E+00  6.5438E+00  6.5438E+00  6.5438E+00  6.5438E+00  6.5438E+00  6.5438E+00  6.5438E+00  6.5438E+00  6.5438E+00  6.5438E+00  6.5438E+00  6.5438E+00  6.5438E+00  6.5438E+00  6.5438E+00  6.5438E+00  6.5438E+00  6.5438E+00  6.5438E+00  6.5438E+00  6.5438E+00  6.5438E+00
 2.0786E+00  6.7096E+00  6.7107E+00  6.7107E+00  6.7107E+00  6.7107E+00  6.7107E+00  6.7107E+00  6.7108E+00  6.7108E+00  6.7109E+00  6.7110E+00  6.7113E+00  6.7121E+00  6.7138E+00  6.7180E+00  6.7270E+00  6.7399E+00  6.7496E+00  6.7535E+00  6.7545E+00  6.7547E+00  6.7547E+00  6.7547E+00  6.7547E+00  6.7547E+00  6.7547E+00  6.7547E+00  6.7547E+00  6.7547E+00  6.7547E+00  6.7547E+00  6.7547E+00  6.7547E+00  6.7547E+00  6.7547E+00  6.7547E+00  6.7547E+00  6.7547E+00  6.7547E+00  6.7547E+00  6.7547E+00  6.7547E+00  6.7547E+00  6.7547E+00  6.7547E+00  6.7547E+00  6.7547E+00  6.7547E+00  6.7547E+00  6.7547E+00  6.7547E+00  6.7547E+00  6.7547E+00  6.7547E+00  6.7547E+00  6.7547E+00
 2.2407E+00  6.9586E+00  6.9597E+00  6.9597E+00  6.9597E+00  6.9597E+00  6.9597E+00  6.9597E+00  6.9597E+00  6.9597E+00  6.9597E+00  6.9597E+00  6.9597E+00  6.9598E+00  6.9599E+00  6.9601E+00  6.9605E+00  6.9612E+00  6.9616E+00  6.9618E+00  6.9619E+00  6.9619E+00  6.9619E+00  6.9619E+00  6.9619E+00  6.9619E+00  6.9619E+00  6.9619E+00  6.9619E+00  6.9619E+00  6.9619E+00  6.9619E+00  6.9619E+00  6.9619E+00  6.9619E+00  6.9619E+00  6.9619E+00  6.9619E+00  6.9619E+00  6.9619E+00  6.9619E+00  6.9619E+00  6.9619E+00  6.9619E+00  6.9619E+00  6.9619E+00  6.9619E+00  6.9619E+00  6.9619E+00  6.9619E+00  6.9619E+00  6.9619E+00  6.9619E+00  6.9619E+00  6.9619E+00  6.9619E+00  6.9619E+00
 2.4027E+00  7.1595E+00  7.1607E+00  7.1607E+00  7.1607E+00  7.1607E+00  7.1607E+00  7.1607E+00  7.1607E+00  7.1607E+00  7.1607E+00  7.1606E+00  7.1606E+00  7.1604E+00  7.1600E+00  7.1591E+00  7.1572E+00  7.1544E+00  7.1523E+00  7.1515E+00  7.1512E+00  7.1512E+00  7.1512E+00  7.1512E+00  7.1512E+00  7.1512E+00  7.1512E+00  7.1512E+00  7.1512E+00  7.1512E+00  7.1512E+00  7.1512E+00  7.1512E+00  7.1512E+00  7.1512E+00  7.1512E+00  7.1512E+00  7.1512E+00  7.1512E+00  7.1512E+00  7.1512E+00  7.1512E+00  7.1512E+00  7.1512E+00  7.1512E+00  7.1512E+00  7.1512E+00  7.1512E+00  7.1512E+00  7.1512E+00  7.1512E+00  7.1512E+00  7.1512E+00  7.1512E+00  7.1512E+00  7.1512E+00  7.1512E+00
 2.5647E+00  7.3225E+00  7.3237E+00  7.3237E+00  7.3237E+00  7.3237E+00  7.3237E+00  7.3237E+00  7.3237E+00  7.3237E+00  7.3236E+00  7.3236E+00  7.3234E+00  7.3231E+00  7.3223E+00  7.3204E+00  7.3163E+00  7.3104E+00  7.3060E+00  7.3042E+00  7.3038E+00  7.3037E+00  7.3037E+00  7.3037E+00  7.3037E+00  7.3037E+00  7.3037E+00  7.3037E+00  7.3037E+00  7.3037E+00  7.3037E+00  7.3037E+00  7.3037E+00  7.3037E+00  7.3037E+00  7.3037E+00  7.3037E+00  7.3037E+00  7.3037E+00  7.3037E+00  7.3037E+00  7.3037E+00  7.3037E+00  7.3037E+00  7.3037E+00  7.3037E+00  7.3037E+00  7.3037E+00  7.3037E+00  7.3037E+00  7.3037E+00  7.3037E+00  7.3037E+00  7.3037E+00  7.3037E+00  7.3037E+00  7.3037E+00
 2.7268E+00  7.4515E+00  7.4527E+00  7.4527E+00  7.4527E+00  7.4527E+00  7.4527E+00  7.4527E+00  7.4526E+00  7.4526E+00  7.4525E+00  7.4524E+00  7.4521E+00  7.4514E+00  7.4498E+00  7.4458E+00  7.4373E+00  7.4251E+00  7.4159E+00  7.4122E+00  7.4113E+00  7.4111E+00  7.4111E+00  7.4111E+00  7.4111E+00  7.4111E+00  7.4111E+00  7.4111E+00  7.4111E+00  7.4111E+00  7.4111E+00  7.4111E+00  7.4111E+00  7.4111E+00  7.4111E+00  7.4111E+00  7.4111E+00  7.4111E+00  7.4111E+00  7.4111E+00  7.4111E+00  7.4111E+00  7.4111E+00  7.4111E+00  7.4111E+00  7.4111E+00  7.4111E+00  7.4111E+00  7.4111E+00  7.4111E+00  7.4111E+00  7.4111E+00  7.4111E+00  7.4111E+00  7.4111E+00  7.4111E+00  7.4111E+00
 2.8888E+00  7.5445E+00  7.5457E+00  7.5457E+00  7.5457E+00  7.5457E+00  7.5457E+00  7.5456E+00  7.5456E+00  7.5455E+00  7.5454E+00  7.5452E+00  7.5447E+00  7.5436E+00  7.5409E+00  7.5345E+00  7.5206E+00  7.5007E+00  7.4858E+00  7.4799E+00  7.4783E+00  7.4781E+00  7.4780E+00  7.4780E+00  7.4780E+00  7.4780E+00  7.4780E+00  7.4780E+00  7.4780E+00  7.4780E+00  7.4780E+00  7.4780E+00  7.4780E+00  7.4780E+00  7.4780E+00  7.4780E+00  7.4780E+00  7.4780E+00  7.4780E+00  7.4780E+00  7.4780E+00  7.4780E+00  7.4780E+00  7.4780E+00  7.4780E+00  7.4780E+00  7.4780E+00  7.4780E+00  7.4780E+00  7.4780E+00  7.4780E+00  7.4780E+00  7.4780E+00  7.4780E+00  7.4780E+00  7.4780E+00  7.4780E+00
 3.0508E+00  7.6015E+00  7.6027E+00  7.6027E+00  7.6027E+00  7.6027E+00  7.6026E+00  7.6026E+00  7.6026E+00  7.6025E+00  7.6023E+00  7.6020E+00  7.6014E+00  7.6000E+00  7.5966E+00  7.5883E+00  7.5705E+00  7.5449E+00  7.5257E+00  7.5181E+00  7.5161E+00  7.5158E+00  7.5157E+00  7.5157E+00  7.5157E+00  7.5157E+00  7.5157E+00  7.5157E+00  7.5157E+00  7.5157E+00  7.5157E+00  7.5157E+00  7.5157E+00  7.5157E+00  7.5157E+00  7.5157E+00  7.5157E+00  7.5157E+00  7.5157E+00  7.5157E+00  7.5157E+00  7.5157E+00  7.5157E+00  7.5157E+00  7.5157E+00  7.5157E+00  7.5157E+00  7.5157E+00  7.5157E+00  7.5157E+00  7.5157E+00  7.5157E+00  7.5157E+00  7.5157E+00  7.5157E+00  7.5157E+00  7.5157E+00
 3.2129E+00  7.6345E+00  7.6357E+00  7.6357E+00  7.6357E+00  7.6357E+00  7.6356E+00  7.6356E+00  7.6356E+00  7.6355E+00  7.6353E+00  7.6349E+00  7.6342E+00  7.6326E+00  7.6286E+00  7.6190E+00  7.5985E+00  7.5690E+00  7.5468E+00  7.5381E+00  7.5358E+00  7.5354E+00  7.5353E+00  7.5353E+00  7.5353E+00  7.5353E+00  7.5353E+00  7.5353E+00  7.5353E+00  7.5353E+00  7.5353E+00  7.5353E+00  7.5353E+00  7.5353E+00  7.5353E+00  7.5353E+00  7.5353E+00  7.5353E+00  7.5353E+00  7.5353E+00  7.5353E+00  7.5353E+00  7.5353E+00  7.5353E+00  7.5353E+00  7.5353E+00  7.5353E+00  7.5353E+00  7.5353E+00  7.5353E+00  7.5353E+00  7.5353E+00  7.5353E+00  7.5353E+00  7.5353E+00  7.5353E+00  7.5353E+00
 3.3749E+00  7.6505E+00  7.6517E+00  7.6517E+00  7.6517E+00  7.6517E+00  7.6516E+00  7.6516E+00  7.6515E+00  7.6514E+00  7.6513E+00  7.6509E+00  7.6501E+00  7.6484E+00  7.6442E+00  7.6340E+00  7.6123E+00  7.5809E+00  7.5573E+00  7.5480E+00  7.5456E+00  7.5452E+00  7.5451E+00  7.5451E+00  7.5451E+00  7.5451E+00  7.5451E+00  7.5451E+00  7.5451E+00  7.5451E+00  7.5451E+00  7.5451E+00  7.5451E+00  7.5451E+00  7.5451E+00  7.5451E+00  7.5451E+00  7.5451E+00  7.5451E+00  7.5451E+00  7.5451E+00  7.5451E+00  7.5451E+00  7.5451E+00  7.5451E+00  7.5451E+00  7.5451E+00  7.5451E+00  7.5451E+00  7.5451E+00  7.5451E+00  7.5451E+00  7.5451E+00  7.5451E+00  7.5451E+00  7.5451E+00  7.5451E+00
 3.5369E+00  7.6585E+00  7.6597E+00  7.6597E+00  7.6597E+00  7.6596E+00  7.6596E+00  7.6596E+00  7.6595E+00  7.6594E+00  7.6593E+00  7.6589E+00  7.6581E+00  7.6563E+00  7.6520E+00  7.6415E+00  7.6191E+00  7.5868E+00  7.5625E+00  7.5529E+00  7.5505E+00  7.5500E+00  7.5499E+00  7.5499E+00  7.5499E+00  7.5499E+00  7.5499E+00  7.5499E+00  7.5499E+00  7.5499E+00  7.5499E+00  7.5499E+00  7.5499E+00  7.5499E+00  7.5499E+00  7.5499E+00  7.5499E+00  7.5499E+00  7.5499E+00  7.5499E+00  7.5499E+00  7.5499E+00  7.5499E+00  7.5499E+00  7.5499E+00  7.5499E+00  7.5499E+00  7.5499E+00  7.5499E+00  7.5499E+00  7.5499E+00  7.5499E+00  7.5499E+00  7.5499E+00  7.5499E+00  7.5499E+00  7.5499E+00
 3.6990E+00  7.6644E+00  7.6657E+00  7.6657E+00  7.6657E+00  7.6656E+00  7.6656E+00  7.6656E+00  7.6655E+00  7.6654E+00  7.6652E+00  7.6649E+00  7.6640E+00  7.6622E+00  7.6578E+00  7.6470E+00  7.6241E+00  7.5911E+00  7.5662E+00  7.5564E+00  7.5539E+00  7.5534E+00  7.5533E+00  7.5533E+00  7.5533E+00  7.5533E+00  7.5533E+00  7.5533E+00  7.5533E+00  7.5533E+00  7.5533E+00  7.5533E+00  7.5533E+00  7.5533E+00  7.5533E+00  7.5533E+00  7.5533E+00  7.5533E+00  7.5533E+00  7.5533E+00  7.5533E+00  7.5533E+00  7.5533E+00  7.5533E+00  7.5533E+00  7.5533E+00  7.5533E+00  7.5533E+00  7.5533E+00  7.5533E+00  7.5533E+00  7.5533E+00  7.5533E+00  7.5533E+00  7.5533E+00  7.5533E+00  7.5533E+00
