#
# ocs + photon = ocs+  + electr
#
 11
#
1    0900.0  0.330E-16
2    1000.0  0.330E-16
3    1100.0  0.519E-17
4    1200.0  0.000E+0
5    1300.0  0.000E+0
6    1400.0  0.000E+0
7    1500.0  0.000E+0
8    1600.0  0.000E+0
9    1700.0  0.000E+0
10   1800.0  0.000E+0
11   1900.0  0.000E+0

#CROSS SECTIONS TAKEN FROM THE SUBROUTINE CRII.
#
#THE DISSOCIATION RATE GIVEN BY HERBST AND LEUNG (1986) WAS 4.74E-10.
#THE VALUE OBTAINED WITH THESE CROSS SECTION VALUES WAS
#4.241E-10.
