# DUSTEM: common wavelength grid for all Q's
# nr of points
# waves (microns)
         600
 8.0000E-02
 8.1470E-02
 8.2968E-02
 8.4493E-02
 8.6046E-02
 8.7627E-02
 8.9238E-02
 9.0878E-02
 9.2548E-02
 9.4249E-02
 9.5981E-02
 9.7745E-02
 9.9542E-02
 1.0137E-01
 1.0323E-01
 1.0513E-01
 1.0706E-01
 1.0903E-01
 1.1104E-01
 1.1308E-01
 1.1516E-01
 1.1727E-01
 1.1943E-01
 1.2162E-01
 1.2386E-01
 1.2613E-01
 1.2845E-01
 1.3081E-01
 1.3322E-01
 1.3567E-01
 1.3816E-01
 1.4070E-01
 1.4328E-01
 1.4592E-01
 1.4860E-01
 1.5133E-01
 1.5411E-01
 1.5695E-01
 1.5983E-01
 1.6277E-01
 1.6576E-01
 1.6881E-01
 1.7191E-01
 1.7507E-01
 1.7829E-01
 1.8156E-01
 1.8490E-01
 1.8830E-01
 1.9176E-01
 1.9528E-01
 1.9887E-01
 2.0253E-01
 2.0625E-01
 2.1004E-01
 2.1390E-01
 2.1783E-01
 2.2184E-01
 2.2591E-01
 2.3007E-01
 2.3429E-01
 2.3860E-01
 2.4299E-01
 2.4745E-01
 2.5200E-01
 2.5663E-01
 2.6135E-01
 2.6615E-01
 2.7104E-01
 2.7603E-01
 2.8110E-01
 2.8627E-01
 2.9153E-01
 2.9689E-01
 3.0234E-01
 3.0790E-01
 3.1356E-01
 3.1932E-01
 3.2519E-01
 3.3117E-01
 3.3725E-01
 3.4345E-01
 3.4976E-01
 3.5619E-01
 3.6274E-01
 3.6941E-01
 3.7620E-01
 3.8311E-01
 3.9015E-01
 3.9732E-01
 4.0463E-01
 4.1206E-01
 4.1964E-01
 4.2735E-01
 4.3520E-01
 4.4320E-01
 4.5135E-01
 4.5964E-01
 4.6809E-01
 4.7670E-01
 4.8546E-01
 4.9438E-01
 5.0347E-01
 5.1272E-01
 5.2214E-01
 5.3174E-01
 5.4151E-01
 5.5147E-01
 5.6160E-01
 5.7192E-01
 5.8244E-01
 5.9314E-01
 6.0404E-01
 6.1514E-01
 6.2645E-01
 6.3796E-01
 6.4969E-01
 6.6163E-01
 6.7379E-01
 6.8618E-01
 6.9879E-01
 7.1163E-01
 7.2471E-01
 7.3803E-01
 7.5159E-01
 7.6541E-01
 7.7948E-01
 7.9380E-01
 8.0839E-01
 8.2325E-01
 8.3838E-01
 8.5379E-01
 8.6948E-01
 8.8546E-01
 9.0174E-01
 9.1831E-01
 9.3519E-01
 9.5238E-01
 9.6988E-01
 9.8771E-01
 1.0059E+00
 1.0244E+00
 1.0432E+00
 1.0624E+00
 1.0819E+00
 1.1018E+00
 1.1220E+00
 1.1426E+00
 1.1636E+00
 1.1850E+00
 1.2068E+00
 1.2290E+00
 1.2516E+00
 1.2746E+00
 1.2980E+00
 1.3219E+00
 1.3462E+00
 1.3709E+00
 1.3961E+00
 1.4218E+00
 1.4479E+00
 1.4745E+00
 1.5016E+00
 1.5292E+00
 1.5573E+00
 1.5859E+00
 1.6151E+00
 1.6448E+00
 1.6750E+00
 1.7058E+00
 1.7371E+00
 1.7690E+00
 1.8016E+00
 1.8347E+00
 1.8684E+00
 1.9027E+00
 1.9377E+00
 1.9733E+00
 2.0096E+00
 2.0465E+00
 2.0841E+00
 2.1224E+00
 2.1615E+00
 2.2012E+00
 2.2416E+00
 2.2828E+00
 2.3248E+00
 2.3675E+00
 2.4110E+00
 2.4554E+00
 2.5005E+00
 2.5464E+00
 2.5932E+00
 2.6409E+00
 2.6894E+00
 2.7389E+00
 2.7892E+00
 2.8405E+00
 2.8927E+00
 2.9459E+00
 3.0000E+00
 3.0000E+00
 3.0213E+00
 3.0429E+00
 3.0645E+00
 3.0863E+00
 3.1083E+00
 3.1304E+00
 3.1527E+00
 3.1751E+00
 3.1977E+00
 3.2205E+00
 3.2434E+00
 3.2665E+00
 3.2897E+00
 3.3131E+00
 3.3367E+00
 3.3604E+00
 3.3844E+00
 3.4084E+00
 3.4327E+00
 3.4571E+00
 3.4817E+00
 3.5065E+00
 3.5315E+00
 3.5566E+00
 3.5819E+00
 3.6074E+00
 3.6331E+00
 3.6589E+00
 3.6849E+00
 3.7112E+00
 3.7376E+00
 3.7642E+00
 3.7910E+00
 3.8179E+00
 3.8451E+00
 3.8725E+00
 3.9000E+00
 3.9278E+00
 3.9557E+00
 3.9839E+00
 4.0122E+00
 4.0408E+00
 4.0696E+00
 4.0985E+00
 4.1277E+00
 4.1571E+00
 4.1866E+00
 4.2164E+00
 4.2464E+00
 4.2767E+00
 4.3071E+00
 4.3377E+00
 4.3686E+00
 4.3997E+00
 4.4310E+00
 4.4625E+00
 4.4943E+00
 4.5263E+00
 4.5585E+00
 4.5909E+00
 4.6236E+00
 4.6565E+00
 4.6896E+00
 4.7230E+00
 4.7566E+00
 4.7905E+00
 4.8246E+00
 4.8589E+00
 4.8935E+00
 4.9283E+00
 4.9634E+00
 4.9987E+00
 5.0343E+00
 5.0701E+00
 5.1062E+00
 5.1425E+00
 5.1791E+00
 5.2160E+00
 5.2531E+00
 5.2905E+00
 5.3281E+00
 5.3660E+00
 5.4042E+00
 5.4427E+00
 5.4814E+00
 5.5204E+00
 5.5597E+00
 5.5993E+00
 5.6391E+00
 5.6792E+00
 5.7197E+00
 5.7604E+00
 5.8014E+00
 5.8426E+00
 5.8842E+00
 5.9261E+00
 5.9683E+00
 6.0107E+00
 6.0535E+00
 6.0966E+00
 6.1400E+00
 6.1837E+00
 6.2277E+00
 6.2720E+00
 6.3166E+00
 6.3616E+00
 6.4069E+00
 6.4525E+00
 6.4984E+00
 6.5446E+00
 6.5912E+00
 6.6381E+00
 6.6853E+00
 6.7329E+00
 6.7808E+00
 6.8291E+00
 6.8777E+00
 6.9266E+00
 6.9759E+00
 7.0256E+00
 7.0756E+00
 7.1259E+00
 7.1766E+00
 7.2277E+00
 7.2791E+00
 7.3309E+00
 7.3831E+00
 7.4356E+00
 7.4885E+00
 7.5418E+00
 7.5955E+00
 7.6496E+00
 7.7040E+00
 7.7588E+00
 7.8140E+00
 7.8696E+00
 7.9257E+00
 7.9821E+00
 8.0389E+00
 8.0961E+00
 8.1537E+00
 8.2117E+00
 8.2701E+00
 8.3290E+00
 8.3883E+00
 8.4480E+00
 8.5081E+00
 8.5686E+00
 8.6296E+00
 8.6910E+00
 8.7529E+00
 8.8152E+00
 8.8779E+00
 8.9411E+00
 9.0047E+00
 9.0688E+00
 9.1333E+00
 9.1983E+00
 9.2638E+00
 9.3297E+00
 9.3961E+00
 9.4629E+00
 9.5303E+00
 9.5981E+00
 9.6664E+00
 9.7352E+00
 9.8045E+00
 9.8743E+00
 9.9445E+00
 1.0015E+01
 1.0087E+01
 1.0158E+01
 1.0231E+01
 1.0303E+01
 1.0377E+01
 1.0451E+01
 1.0525E+01
 1.0600E+01
 1.0675E+01
 1.0751E+01
 1.0828E+01
 1.0905E+01
 1.0982E+01
 1.1061E+01
 1.1139E+01
 1.1219E+01
 1.1298E+01
 1.1379E+01
 1.1460E+01
 1.1541E+01
 1.1623E+01
 1.1706E+01
 1.1790E+01
 1.1873E+01
 1.1958E+01
 1.2043E+01
 1.2129E+01
 1.2215E+01
 1.2302E+01
 1.2389E+01
 1.2478E+01
 1.2566E+01
 1.2656E+01
 1.2746E+01
 1.2837E+01
 1.2928E+01
 1.3020E+01
 1.3113E+01
 1.3206E+01
 1.3300E+01
 1.3395E+01
 1.3490E+01
 1.3586E+01
 1.3683E+01
 1.3780E+01
 1.3878E+01
 1.3977E+01
 1.4076E+01
 1.4176E+01
 1.4277E+01
 1.4379E+01
 1.4481E+01
 1.4584E+01
 1.4688E+01
 1.4793E+01
 1.4898E+01
 1.5004E+01
 1.5111E+01
 1.5218E+01
 1.5327E+01
 1.5436E+01
 1.5545E+01
 1.5656E+01
 1.5767E+01
 1.5880E+01
 1.5993E+01
 1.6106E+01
 1.6221E+01
 1.6337E+01
 1.6453E+01
 1.6570E+01
 1.6688E+01
 1.6807E+01
 1.6926E+01
 1.7047E+01
 1.7168E+01
 1.7290E+01
 1.7413E+01
 1.7537E+01
 1.7662E+01
 1.7788E+01
 1.7914E+01
 1.8042E+01
 1.8170E+01
 1.8299E+01
 1.8430E+01
 1.8561E+01
 1.8693E+01
 1.8826E+01
 1.8960E+01
 1.9095E+01
 1.9231E+01
 1.9367E+01
 1.9505E+01
 1.9644E+01
 1.9784E+01
 1.9925E+01
 2.0066E+01
 2.0209E+01
 2.0353E+01
 2.0498E+01
 2.0644E+01
 2.0791E+01
 2.0939E+01
 2.1088E+01
 2.1238E+01
 2.1389E+01
 2.1541E+01
 2.1694E+01
 2.1849E+01
 2.2004E+01
 2.2161E+01
 2.2319E+01
 2.2477E+01
 2.2637E+01
 2.2798E+01
 2.2961E+01
 2.3124E+01
 2.3289E+01
 2.3454E+01
 2.3621E+01
 2.3789E+01
 2.3959E+01
 2.4129E+01
 2.4301E+01
 2.4474E+01
 2.4648E+01
 2.4823E+01
 2.5000E+01
 2.5000E+01
 2.7185E+01
 2.9560E+01
 3.2144E+01
 3.4952E+01
 3.8007E+01
 4.1328E+01
 4.4940E+01
 4.8867E+01
 5.3137E+01
 5.7781E+01
 6.2830E+01
 6.8321E+01
 7.4291E+01
 8.0783E+01
 8.7843E+01
 9.5519E+01
 1.0387E+02
 1.1294E+02
 1.2281E+02
 1.3355E+02
 1.4522E+02
 1.5791E+02
 1.7170E+02
 1.8671E+02
 2.0303E+02
 2.2077E+02
 2.4006E+02
 2.6104E+02
 2.8385E+02
 3.0866E+02
 3.3563E+02
 3.6496E+02
 3.9685E+02
 4.3153E+02
 4.6924E+02
 5.1025E+02
 5.5484E+02
 6.0332E+02
 6.5604E+02
 7.1337E+02
 7.7572E+02
 8.4350E+02
 9.1721E+02
 9.9737E+02
 1.0845E+03
 1.1793E+03
 1.2824E+03
 1.3944E+03
 1.5163E+03
 1.6488E+03
 1.7929E+03
 1.9495E+03
 2.1199E+03
 2.3052E+03
 2.5066E+03
 2.7256E+03
 2.9638E+03
 3.2228E+03
 3.5045E+03
 3.8107E+03
 4.1437E+03
 4.5058E+03
 4.8996E+03
 5.3278E+03
 5.7933E+03
 6.2996E+03
 6.8501E+03
 7.4487E+03
 8.0997E+03
 8.8075E+03
 9.5771E+03
 1.0414E+04
 1.1324E+04
 1.2314E+04
 1.3390E+04
 1.4560E+04
 1.5832E+04
 1.7216E+04
 1.8720E+04
 2.0356E+04
 2.2135E+04
 2.4069E+04
 2.6173E+04
 2.8460E+04
 3.0947E+04
 3.3651E+04
 3.6592E+04
 3.9790E+04
 4.3267E+04
 4.7048E+04
 5.1159E+04
 5.5630E+04
 6.0491E+04
 6.5778E+04
 7.1526E+04
 7.7776E+04
 8.4573E+04
 9.1964E+04
 1.0000E+05
