5.0
22000.0
1174
nm	Flux22000K(ergcm-2s-1nm-1sr-1)
22.300	0.0000
22.680	0.0000
23.000	3.1697e-06
23.400	7.5977e-06
24.000	2.0004e-05
24.650	5.3552e-05
25.240	0.00012594
25.680	0.00022434
26.000	0.00036068
26.400	0.00060616
26.850	0.0010651
27.350	0.0019426
27.850	0.0034974
28.400	0.0066173
29.000	0.012595
29.600	0.023296
30.100	0.038192
30.800	0.073899
31.800	0.18810
32.800	0.42869
33.800	0.96814
34.800	2.0428
35.700	4.5627
36.600	8.5044
37.500	14.632
38.500	26.576
39.500	47.054
40.500	79.760
41.400	127.31
42.200	186.31
43.000	273.15
44.100	448.94
45.100	688.11
46.000	988.43
47.000	1471.4
48.000	2138.1
49.000	3086.5
50.000	4363.4
50.600	80222
51.200	5.9246e+05
52.000	7.2401e+05
53.000	9.5795e+05
54.000	1.0476e+06
55.000	1.6222e+06
56.000	1.9334e+06
57.000	2.4656e+06
58.000	2.4270e+06
59.000	3.3163e+06
60.000	4.0320e+06
61.000	4.9569e+06
62.000	5.6177e+06
63.000	6.5169e+06
64.000	6.9572e+06
65.000	8.2243e+06
65.800	9.4514e+06
66.500	1.0116e+07
67.500	1.0733e+07
68.500	1.1803e+07
69.500	1.4469e+07
70.500	1.5514e+07
71.600	1.7685e+07
72.600	1.9189e+07
73.500	2.0457e+07
74.500	2.3534e+07
75.500	2.5969e+07
76.500	2.8607e+07
77.500	3.1463e+07
78.500	3.4311e+07
79.500	3.6366e+07
80.500	3.9022e+07
81.500	4.1350e+07
82.500	4.5632e+07
83.500	4.3347e+07
84.500	5.0127e+07
85.500	5.2993e+07
86.500	5.7328e+07
87.500	6.2169e+07
88.500	6.7876e+07
89.500	7.2165e+07
90.500	7.2658e+07
91.500	1.1266e+08
92.500	6.9602e+08
93.500	2.1468e+09
94.500	5.8235e+09
95.500	8.8848e+09
96.500	1.0523e+10
97.500	1.2993e+09
98.500	8.5816e+09
99.500	8.6501e+09
100.50	1.2260e+10
101.50	1.1796e+10
102.50	4.2114e+09
103.50	8.1790e+09
104.50	1.4845e+10
105.50	1.3705e+10
106.50	1.0702e+10
107.50	1.2611e+10
108.50	9.8565e+09
109.50	1.2905e+10
110.50	1.1527e+10
111.50	1.0875e+10
112.50	9.1729e+09
113.50	1.1889e+10
114.50	1.0571e+10
115.50	1.1017e+10
116.50	1.1023e+10
117.50	6.8398e+09
118.50	1.0823e+10
119.50	8.9421e+09
120.50	5.8906e+09
121.50	3.8145e+09
122.50	8.2585e+09
123.50	1.0374e+10
124.50	1.0456e+10
125.50	9.8740e+09
126.50	9.4180e+09
127.50	1.0266e+10
128.50	1.0167e+10
129.50	7.7825e+09
130.50	8.2172e+09
131.50	9.7244e+09
132.50	8.9238e+09
133.50	8.1408e+09
134.50	8.9254e+09
135.50	8.6676e+09
136.50	7.7610e+09
137.50	7.6819e+09
138.50	7.6508e+09
139.50	5.9798e+09
140.50	6.3446e+09
141.50	6.7847e+09
142.50	6.7508e+09
143.50	6.8854e+09
144.20	7.0494e+09
144.70	6.8993e+09
145.50	6.7051e+09
146.50	6.0906e+09
147.50	6.1830e+09
148.50	6.0798e+09
149.50	5.9895e+09
150.50	5.4126e+09
151.20	4.7095e+09
151.70	4.9123e+09
152.50	5.1249e+09
153.50	4.3460e+09
154.50	4.3113e+09
155.50	4.1912e+09
156.50	4.4802e+09
157.50	4.7613e+09
158.50	4.7875e+09
159.50	4.7589e+09
160.50	4.8522e+09
161.50	4.8029e+09
162.50	4.6275e+09
163.50	4.9279e+09
164.50	4.8901e+09
165.50	4.7414e+09
166.50	4.9584e+09
167.20	4.7403e+09
167.70	4.9851e+09
168.50	4.9608e+09
169.50	4.6664e+09
170.50	4.4890e+09
171.50	4.2188e+09
172.50	4.1659e+09
173.50	4.3876e+09
174.50	4.2131e+09
175.50	4.3199e+09
176.50	4.1337e+09
177.50	3.9635e+09
178.50	4.0394e+09
179.50	4.1992e+09
180.50	4.2293e+09
181.50	3.7121e+09
182.50	3.9133e+09
183.50	3.7347e+09
184.50	3.3925e+09
185.50	3.3469e+09
186.50	3.4066e+09
187.50	3.6752e+09
188.50	3.2360e+09
189.50	2.9861e+09
190.50	3.3001e+09
191.50	3.0432e+09
192.50	2.9157e+09
193.50	3.1042e+09
194.50	3.1664e+09
195.50	2.8576e+09
196.70	3.1297e+09
197.60	3.2530e+09
198.40	3.0018e+09
199.50	2.9412e+09
200.50	3.0581e+09
201.50	2.9824e+09
202.50	3.1178e+09
203.50	2.8213e+09
204.50	2.8893e+09
205.50	2.8054e+09
206.50	2.8107e+09
207.40	2.9764e+09
207.80	2.6527e+09
208.50	2.8134e+09
209.50	2.6442e+09
210.50	2.7337e+09
211.50	2.7357e+09
212.50	2.7654e+09
213.50	2.7025e+09
214.50	2.5610e+09
215.50	2.6787e+09
216.50	2.6612e+09
217.50	2.6276e+09
218.50	2.5321e+09
219.50	2.5845e+09
220.50	2.5485e+09
221.50	2.4952e+09
222.50	2.4173e+09
223.50	2.4215e+09
224.50	2.4295e+09
225.50	2.3406e+09
226.50	2.3825e+09
227.50	2.3547e+09
228.50	2.3616e+09
229.50	2.2320e+09
230.50	2.2733e+09
231.50	2.1899e+09
232.50	1.8301e+09
233.50	2.0720e+09
234.50	2.0765e+09
235.50	2.0841e+09
236.50	2.0420e+09
237.50	2.0216e+09
238.50	1.9912e+09
239.50	2.0034e+09
240.50	1.9387e+09
241.50	1.9394e+09
242.50	1.9442e+09
243.50	1.8740e+09
244.50	1.8935e+09
245.50	1.8953e+09
246.50	1.8494e+09
247.50	1.8226e+09
248.50	1.8196e+09
249.50	1.7017e+09
250.50	1.7812e+09
251.30	1.6887e+09
251.80	1.7566e+09
252.50	1.7094e+09
253.50	1.6855e+09
254.50	1.6439e+09
255.50	1.6750e+09
256.50	1.6525e+09
257.50	1.6613e+09
258.50	1.6490e+09
259.50	1.6309e+09
260.50	1.6054e+09
261.50	1.5871e+09
262.50	1.5738e+09
263.50	1.5631e+09
264.50	1.5718e+09
265.50	1.5658e+09
266.50	1.5093e+09
267.50	1.5207e+09
268.50	1.5103e+09
269.50	1.4650e+09
270.50	1.4499e+09
271.50	1.4388e+09
272.50	1.4236e+09
273.50	1.4268e+09
274.50	1.3722e+09
275.50	1.3690e+09
276.50	1.3628e+09
277.50	1.3758e+09
278.50	1.3541e+09
279.50	1.2948e+09
280.50	1.3155e+09
281.50	1.3227e+09
282.50	1.3024e+09
283.50	1.2463e+09
284.50	1.2623e+09
285.50	1.2515e+09
286.50	1.2568e+09
287.50	1.2395e+09
288.50	1.2274e+09
289.50	1.2124e+09
291.00	1.1937e+09
293.00	1.1705e+09
295.00	1.1374e+09
297.00	1.1254e+09
299.00	1.1006e+09
301.00	1.0717e+09
303.00	1.0658e+09
305.00	1.0448e+09
307.00	1.0254e+09
309.00	9.9695e+08
311.00	9.8382e+08
313.00	9.6336e+08
315.00	9.4729e+08
317.00	9.2477e+08
319.00	9.0273e+08
321.00	8.9429e+08
323.00	8.7742e+08
325.00	8.6222e+08
327.00	8.4543e+08
329.00	8.2928e+08
331.00	8.1599e+08
333.00	8.0039e+08
335.00	7.8482e+08
337.00	7.7160e+08
339.00	7.5876e+08
341.00	7.4540e+08
343.00	7.2027e+08
345.00	7.0940e+08
347.00	7.0456e+08
349.00	6.9255e+08
351.00	6.8205e+08
353.00	6.7128e+08
355.00	6.5974e+08
357.00	6.5101e+08
359.00	6.3354e+08
361.00	6.2300e+08
363.00	6.1408e+08
364.00	6.1359e+08
365.00	6.0706e+08
367.00	5.9807e+08
369.00	5.6548e+08
371.00	5.4916e+08
373.00	5.3872e+08
375.00	5.8733e+08
377.00	5.8729e+08
379.00	6.2008e+08
381.00	6.5199e+08
383.00	5.7108e+08
385.00	6.6139e+08
387.00	6.6193e+08
389.00	5.3226e+08
391.00	6.5819e+08
393.00	6.3597e+08
395.00	6.3433e+08
397.00	4.9445e+08
399.00	6.0928e+08
401.00	6.0760e+08
403.00	5.7842e+08
405.00	5.9041e+08
407.00	5.6866e+08
409.00	5.2822e+08
411.00	4.6468e+08
413.00	5.3653e+08
415.00	5.3479e+08
417.00	5.3171e+08
419.00	5.2673e+08
421.00	5.2086e+08
423.00	5.1002e+08
425.00	4.9930e+08
427.00	4.8120e+08
429.00	4.8164e+08
431.00	4.6871e+08
433.00	4.2618e+08
435.00	3.8823e+08
437.00	4.4489e+08
439.00	4.3891e+08
441.00	4.3792e+08
443.00	4.3063e+08
445.00	4.2669e+08
447.00	4.0322e+08
449.00	4.1173e+08
451.00	4.0920e+08
453.00	4.0165e+08
455.00	3.9608e+08
457.00	3.8988e+08
459.00	3.8369e+08
461.00	3.7561e+08
463.00	3.6990e+08
465.00	3.6202e+08
467.00	3.5994e+08
469.00	3.5665e+08
471.00	3.4342e+08
473.00	3.4266e+08
475.00	3.3767e+08
477.00	3.3691e+08
479.00	3.3097e+08
481.00	3.2407e+08
483.00	3.1849e+08
485.00	2.9485e+08
487.00	2.6250e+08
489.00	3.0483e+08
491.00	3.0235e+08
493.00	2.9137e+08
495.00	2.9414e+08
497.00	2.9114e+08
499.00	2.8639e+08
501.00	2.7438e+08
503.00	2.7777e+08
505.00	2.7017e+08
507.00	2.7066e+08
509.00	2.6678e+08
511.00	2.6245e+08
513.00	2.5674e+08
515.00	2.5364e+08
517.00	2.5234e+08
519.00	2.4894e+08
521.00	2.4417e+08
523.00	2.4210e+08
525.00	2.3901e+08
527.00	2.3537e+08
529.00	2.3280e+08
531.00	2.2941e+08
533.00	2.2632e+08
535.00	2.2280e+08
537.00	2.2071e+08
539.00	2.1775e+08
541.00	2.1494e+08
543.00	2.1159e+08
545.00	2.0891e+08
547.00	2.0617e+08
549.00	2.0372e+08
551.00	2.0129e+08
553.00	1.9851e+08
555.00	1.9628e+08
557.00	1.9360e+08
559.00	1.9135e+08
561.00	1.8871e+08
563.00	1.8659e+08
565.00	1.8297e+08
567.00	1.8022e+08
569.00	1.7806e+08
571.00	1.7678e+08
573.00	1.7472e+08
575.00	1.7236e+08
577.00	1.7074e+08
579.00	1.6858e+08
581.00	1.6649e+08
583.00	1.6425e+08
585.00	1.6239e+08
587.00	1.5549e+08
589.00	1.5711e+08
591.00	1.5624e+08
593.00	1.5419e+08
595.00	1.5203e+08
597.00	1.5105e+08
599.00	1.4872e+08
601.00	1.4742e+08
603.00	1.4552e+08
605.00	1.4385e+08
607.00	1.4226e+08
609.00	1.4054e+08
611.00	1.3893e+08
613.00	1.3737e+08
615.00	1.3505e+08
617.00	1.3392e+08
619.00	1.3257e+08
621.00	1.3106e+08
623.00	1.2955e+08
625.00	1.2775e+08
627.00	1.2647e+08
629.00	1.2510e+08
631.00	1.2358e+08
633.00	1.2229e+08
635.00	1.2019e+08
637.00	1.1914e+08
639.00	1.1808e+08
641.00	1.1671e+08
643.00	1.1559e+08
645.00	1.1420e+08
647.00	1.1265e+08
649.00	1.1146e+08
651.00	1.1028e+08
653.00	1.0864e+08
655.00	1.0378e+08
656.12	9.1411e+07
659.00	1.0352e+08
661.00	1.0417e+08
663.00	1.0336e+08
665.00	1.0228e+08
667.00	1.0023e+08
669.00	9.9138e+07
671.00	9.9042e+07
673.00	9.7841e+07
675.00	9.6917e+07
677.00	9.5939e+07
679.00	9.4180e+07
681.00	9.3750e+07
683.00	9.2811e+07
685.00	9.1888e+07
687.00	9.0933e+07
689.00	8.9931e+07
691.00	8.8984e+07
693.00	8.8021e+07
695.00	8.7177e+07
697.00	8.6286e+07
699.00	8.5363e+07
701.00	8.4479e+07
703.00	8.3604e+07
705.00	8.2705e+07
707.00	8.0540e+07
709.00	8.1081e+07
711.00	7.9856e+07
713.00	7.9098e+07
715.00	7.8575e+07
717.00	7.7793e+07
719.00	7.7036e+07
721.00	7.6263e+07
723.00	7.4408e+07
725.00	7.4671e+07
727.00	7.3977e+07
729.00	7.2573e+07
731.00	7.2490e+07
733.00	7.1777e+07
735.00	7.1088e+07
737.00	7.0382e+07
739.00	6.9684e+07
741.00	6.9002e+07
743.00	6.8262e+07
745.00	6.7642e+07
747.00	6.6861e+07
749.00	6.6307e+07
751.00	6.5640e+07
753.00	6.5012e+07
755.00	6.4426e+07
757.00	6.3804e+07
759.00	6.3177e+07
761.00	6.2565e+07
763.00	6.1975e+07
765.00	6.1390e+07
767.00	6.0811e+07
769.00	6.0221e+07
771.00	5.9652e+07
773.00	5.9088e+07
775.00	5.8528e+07
777.00	5.7577e+07
779.00	5.7445e+07
781.00	5.6851e+07
783.00	5.6380e+07
785.00	5.5787e+07
787.00	5.5169e+07
789.00	5.4563e+07
791.00	5.4244e+07
793.00	5.3728e+07
795.00	5.3163e+07
797.00	5.2732e+07
799.00	5.2177e+07
801.00	5.1768e+07
803.00	5.1352e+07
805.00	5.0893e+07
807.00	5.0480e+07
809.00	4.9905e+07
811.00	4.9427e+07
813.00	4.9126e+07
815.00	4.8578e+07
817.00	4.8255e+07
819.00	4.7738e+07
821.00	4.7017e+07
823.00	4.6647e+07
825.00	4.6417e+07
827.00	4.5754e+07
829.00	4.5586e+07
831.00	4.5206e+07
833.00	4.4781e+07
835.00	4.4258e+07
837.00	4.3730e+07
839.00	4.3445e+07
841.00	4.2980e+07
843.00	4.2329e+07
845.00	4.1676e+07
847.00	4.1346e+07
849.00	4.1312e+07
851.00	4.0406e+07
853.00	4.0946e+07
855.00	3.9026e+07
857.00	4.1064e+07
859.00	3.8663e+07
861.00	3.8414e+07
863.00	4.0563e+07
865.00	3.8997e+07
867.00	3.5898e+07
869.00	3.9288e+07
871.00	3.9719e+07
873.00	3.8280e+07
875.00	3.4218e+07
877.00	3.6976e+07
879.00	3.8438e+07
881.00	3.8240e+07
883.00	3.7699e+07
885.00	3.5170e+07
887.00	3.2427e+07
889.00	3.6326e+07
891.00	3.6659e+07
893.00	3.6418e+07
895.00	3.6252e+07
897.00	3.5861e+07
899.00	3.4595e+07
901.00	3.0754e+07
903.00	3.2351e+07
905.00	3.4402e+07
907.00	3.4091e+07
909.00	3.4087e+07
911.00	3.3998e+07
913.00	3.3751e+07
915.00	3.3459e+07
917.00	3.3003e+07
919.00	3.2655e+07
921.00	3.1124e+07
923.00	2.7322e+07
925.00	3.0578e+07
927.00	3.1313e+07
929.00	3.1511e+07
931.00	3.1189e+07
933.00	3.1057e+07
935.00	3.0839e+07
937.00	3.0627e+07
939.00	3.0376e+07
941.00	3.0033e+07
943.00	2.9896e+07
945.00	2.9657e+07
947.00	2.9185e+07
949.00	2.9078e+07
951.00	2.8416e+07
953.00	2.7067e+07
955.00	2.4123e+07
957.00	2.7283e+07
959.00	2.7838e+07
961.00	2.7662e+07
963.00	2.7360e+07
965.00	2.7417e+07
967.00	2.7194e+07
969.00	2.6954e+07
971.00	2.6679e+07
973.00	2.6576e+07
975.00	2.6362e+07
977.00	2.6168e+07
979.00	2.5965e+07
981.00	2.5758e+07
983.00	2.5561e+07
985.00	2.5372e+07
987.00	2.5164e+07
989.00	2.4955e+07
991.00	2.4652e+07
993.00	2.4609e+07
995.00	2.4416e+07
997.00	2.4196e+07
999.00	2.3974e+07
1002.5	2.2656e+07
1007.5	2.1880e+07
1012.5	2.2723e+07
1017.5	2.2437e+07
1022.5	2.2019e+07
1027.5	2.1629e+07
1032.5	2.1146e+07
1037.5	2.0852e+07
1042.5	2.0477e+07
1047.5	2.0108e+07
1052.5	1.9742e+07
1057.5	1.9395e+07
1062.5	1.9055e+07
1067.5	1.8663e+07
1072.5	1.8389e+07
1077.5	1.8066e+07
1082.5	1.7538e+07
1087.5	1.7380e+07
1092.5	1.5720e+07
1097.5	1.6443e+07
1102.5	1.6449e+07
1107.5	1.6281e+07
1112.5	1.6005e+07
1117.5	1.5735e+07
1122.5	1.5459e+07
1127.5	1.5176e+07
1132.5	1.4931e+07
1137.5	1.4709e+07
1142.5	1.4457e+07
1147.5	1.4229e+07
1152.5	1.3995e+07
1157.5	1.3758e+07
1162.5	1.3537e+07
1167.5	1.3320e+07
1172.5	1.3108e+07
1177.5	1.2888e+07
1182.5	1.2692e+07
1187.5	1.2490e+07
1192.5	1.2292e+07
1197.5	1.2008e+07
1202.5	1.1908e+07
1207.5	1.1721e+07
1212.5	1.1537e+07
1217.5	1.1358e+07
1222.5	1.1183e+07
1227.5	1.1010e+07
1232.5	1.0840e+07
1237.5	1.0675e+07
1242.5	1.0512e+07
1247.5	1.0342e+07
1252.5	1.0171e+07
1257.5	1.0036e+07
1262.5	9.8891e+06
1267.5	9.7427e+06
1272.5	9.5891e+06
1277.5	9.2740e+06
1282.5	8.5641e+06
1287.5	9.1092e+06
1292.5	9.0392e+06
1297.5	8.8578e+06
1302.5	8.7798e+06
1307.5	8.6533e+06
1312.5	8.5283e+06
1317.5	8.4018e+06
1322.5	8.2840e+06
1327.5	8.1654e+06
1332.5	8.0485e+06
1337.5	7.9341e+06
1342.5	7.8129e+06
1347.5	7.7111e+06
1352.5	7.6020e+06
1357.5	7.4961e+06
1362.5	7.3906e+06
1367.5	7.2876e+06
1372.5	7.1864e+06
1377.5	7.0884e+06
1382.5	6.9907e+06
1387.5	6.8945e+06
1392.5	6.7958e+06
1397.5	6.7052e+06
1402.5	6.6163e+06
1407.5	6.5269e+06
1412.5	6.4385e+06
1417.5	6.3521e+06
1422.5	6.2673e+06
1427.5	6.1834e+06
1432.5	6.1009e+06
1437.5	6.0198e+06
1442.5	5.9393e+06
1447.5	5.8615e+06
1452.5	5.7846e+06
1457.0	5.7171e+06
1462.0	5.6432e+06
1467.5	5.5634e+06
1472.5	5.4916e+06
1477.5	5.4204e+06
1482.5	5.3519e+06
1487.5	5.2831e+06
1492.5	5.2155e+06
1497.5	5.1465e+06
1502.5	5.0797e+06
1507.5	5.0014e+06
1512.5	4.9425e+06
1517.5	4.8752e+06
1522.5	4.8132e+06
1527.5	4.7457e+06
1532.5	4.6807e+06
1537.5	4.6343e+06
1542.5	4.5509e+06
1547.5	4.5214e+06
1552.5	4.4629e+06
1557.5	4.3633e+06
1562.5	4.3915e+06
1567.5	4.2798e+06
1572.5	4.1957e+06
1577.5	4.2437e+06
1582.5	4.1831e+06
1587.5	3.9906e+06
1592.5	4.0522e+06
1597.5	4.0599e+06
1605.0	3.9521e+06
1615.0	3.7895e+06
1625.0	3.8074e+06
1635.0	3.6719e+06
1645.0	3.5194e+06
1655.0	3.5489e+06
1665.0	3.4691e+06
1675.0	3.3403e+06
1685.0	3.1977e+06
1695.0	3.2352e+06
1705.0	3.1472e+06
1715.0	3.0935e+06
1725.0	3.0207e+06
1735.0	2.8243e+06
1745.0	2.8772e+06
1755.0	2.8300e+06
1765.0	2.7685e+06
1775.0	2.7083e+06
1785.0	2.6477e+06
1795.0	2.5937e+06
1805.0	2.5337e+06
1815.0	2.3768e+06
1825.0	2.4071e+06
1835.0	2.3808e+06
1845.0	2.3313e+06
1855.0	2.2802e+06
1865.0	2.2171e+06
1875.0	2.0927e+06
1885.0	2.1417e+06
1895.0	2.1002e+06
1905.0	2.0515e+06
1915.0	2.0179e+06
1925.0	1.9777e+06
1935.0	1.9323e+06
1945.0	1.8048e+06
1955.0	1.8539e+06
1965.0	1.8259e+06
1975.0	1.7903e+06
1985.0	1.7554e+06
1995.0	1.7215e+06
2005.0	1.6884e+06
2015.0	1.6560e+06
2025.0	1.6245e+06
2035.0	1.5936e+06
2045.0	1.5628e+06
2055.0	1.5306e+06
2065.0	1.5055e+06
2075.0	1.4774e+06
2085.0	1.4501e+06
2095.0	1.4232e+06
2105.0	1.3971e+06
2115.0	1.3657e+06
2125.0	1.3467e+06
2135.0	1.3222e+06
2145.0	1.2979e+06
2155.0	1.2716e+06
2165.0	1.1893e+06
2175.0	1.2236e+06
2185.0	1.2073e+06
2195.0	1.1868e+06
2205.0	1.1661e+06
2215.0	1.1457e+06
2225.0	1.1254e+06
2235.0	1.1063e+06
2245.0	1.0872e+06
2255.0	1.0685e+06
2265.0	1.0502e+06
2275.0	1.0324e+06
2285.0	1.0160e+06
2295.0	1.0031e+06
2305.0	9.8589e+05
2315.0	9.6965e+05
2325.0	9.5294e+05
2335.0	9.3527e+05
2345.0	9.1904e+05
2355.0	9.0328e+05
2365.0	8.8801e+05
2375.0	8.7273e+05
2385.0	8.5832e+05
2395.0	8.4384e+05
2405.0	8.2960e+05
2415.0	8.1583e+05
2425.0	8.0302e+05
2435.0	7.8998e+05
2445.0	7.7661e+05
2455.0	7.6557e+05
2465.0	7.5217e+05
2475.0	7.3964e+05
2485.0	7.3127e+05
2495.0	7.1464e+05
2505.0	7.1223e+05
2515.0	6.9891e+05
2525.0	6.7993e+05
2535.0	6.7621e+05
2545.0	6.6869e+05
2555.0	6.5547e+05
2565.0	6.3661e+05
2575.0	6.3669e+05
2585.0	6.2971e+05
2595.0	6.1970e+05
2605.0	6.0550e+05
2615.0	5.8554e+05
2625.0	5.6207e+05
2635.0	5.8031e+05
2645.0	5.7546e+05
2655.0	5.6645e+05
2665.0	5.5554e+05
2675.0	5.3413e+05
2685.0	5.3922e+05
2695.0	5.3482e+05
2705.0	5.2711e+05
2715.0	5.1953e+05
2725.0	5.1209e+05
2735.0	5.0478e+05
2745.0	4.9638e+05
2755.0	4.7528e+05
2765.0	4.7711e+05
2775.0	4.7640e+05
2785.0	4.7012e+05
2795.0	4.6358e+05
2805.0	4.5708e+05
2815.0	4.5077e+05
2825.0	4.4454e+05
2835.0	4.3839e+05
2845.0	4.3239e+05
2855.0	4.2602e+05
2865.0	4.1641e+05
2875.0	3.9857e+05
2885.0	4.0787e+05
2895.0	4.0370e+05
2905.0	3.9833e+05
2915.0	3.9300e+05
2925.0	3.8776e+05
2935.0	3.8258e+05
2945.0	3.7750e+05
2955.0	3.7251e+05
2965.0	3.6758e+05
2975.0	3.6278e+05
2985.0	3.5800e+05
2995.0	3.5333e+05
3005.0	3.4872e+05
3015.0	3.4411e+05
3025.0	3.3899e+05
3035.0	3.2375e+05
3045.0	3.2427e+05
3055.0	3.2636e+05
3065.0	3.2263e+05
3075.0	3.1841e+05
3085.0	3.1442e+05
3095.0	3.1050e+05
3105.0	3.0658e+05
3115.0	3.0270e+05
3125.0	2.9886e+05
3135.0	2.9519e+05
3145.0	2.9152e+05
3155.0	2.8790e+05
3165.0	2.8433e+05
3175.0	2.8082e+05
3185.0	2.7737e+05
3195.0	2.7396e+05
3210.0	2.6896e+05
3230.0	2.6245e+05
3250.0	2.5614e+05
3270.0	2.4998e+05
3290.0	2.3700e+05
3310.0	2.3739e+05
3330.0	2.3325e+05
3350.0	2.2786e+05
3370.0	2.2256e+05
3390.0	2.1744e+05
3410.0	2.1245e+05
3430.0	2.0743e+05
3450.0	2.0260e+05
3470.0	1.9783e+05
3490.0	1.9333e+05
3510.0	1.8901e+05
3530.0	1.8478e+05
3550.0	1.8065e+05
3570.0	1.7662e+05
3590.0	1.7288e+05
3610.0	1.6897e+05
3630.0	1.6551e+05
3650.0	1.6168e+05
3670.0	1.5873e+05
3690.0	1.5466e+05
3710.0	1.5167e+05
3730.0	1.4668e+05
3750.0	1.4224e+05
3770.0	1.4268e+05
3790.0	1.3996e+05
3810.0	1.3621e+05
3830.0	1.3356e+05
3850.0	1.3153e+05
3870.0	1.2887e+05
3890.0	1.2598e+05
3910.0	1.2232e+05
3930.0	1.2115e+05
3950.0	1.1884e+05
3970.0	1.1650e+05
3990.0	1.1420e+05
4010.0	1.1106e+05
4030.0	1.0838e+05
4050.0	1.0471e+05
4070.0	1.0548e+05
4090.0	1.0355e+05
4110.0	1.0156e+05
4130.0	99536
4150.0	97586
4170.0	94084
4190.0	93893
4210.0	92342
4230.0	90623
4250.0	88888
4270.0	87304
4290.0	85530
4310.0	84137
4330.0	82609
4350.0	81066
4370.0	78033
4390.0	77706
4410.0	76824
4430.0	75459
4450.0	74122
4470.0	72913
4490.0	71633
4510.0	70381
4530.0	69155
4550.0	67959
4570.0	66786
4590.0	65639
4610.0	64490
4630.0	63344
4650.0	60186
4670.0	59449
4690.0	59938
4710.0	59247
4730.0	58259
4750.0	57289
4770.0	56345
4790.0	55416
4810.0	54507
4830.0	53615
4850.0	52744
4870.0	51888
4890.0	51051
4910.0	50229
4930.0	49425
4950.0	48636
4970.0	47863
4990.0	47106
5010.0	46363
5030.0	45633
5050.0	44920
5070.0	44220
5090.0	43533
5110.0	42709
5130.0	40837
5150.0	41460
5170.0	40916
5190.0	40293
5210.0	39681
5230.0	39080
5250.0	38492
5270.0	37915
5290.0	37347
5310.0	36791
5330.0	36246
5350.0	35709
5370.0	35184
5390.0	34666
5410.0	34159
5430.0	33662
5450.0	33173
5470.0	32693
5490.0	32221
5510.0	31759
5530.0	31303
5550.0	30858
5570.0	30419
5590.0	29988
5610.0	29565
5630.0	29149
5650.0	28740
5670.0	28338
5690.0	27944
5710.0	27556
5730.0	27175
5750.0	26801
5770.0	26432
5790.0	26070
5810.0	25715
5830.0	25366
5850.0	25041
5870.0	24703
5890.0	24255
5910.0	23177
5930.0	23660
5950.0	23407
5970.0	23097
5990.0	22790
6010.0	22489
6030.0	22193
6050.0	21903
6070.0	21616
6090.0	21335
6110.0	21058
6130.0	20786
6150.0	20517
6170.0	20254
6190.0	19994
6210.0	19738
6230.0	19487
6250.0	19239
6270.0	18996
6290.0	18756
6310.0	18520
6330.0	18288
6350.0	18059
6370.0	17835
6390.0	17613
6420.0	17287
6460.0	16864
6500.0	16453
6540.0	16056
6580.0	15670
6620.0	15296
6660.0	14932
6700.0	14579
6740.0	14237
6780.0	13905
6820.0	13582
6860.0	13269
6900.0	12965
6940.0	12669
6980.0	12381
7020.0	12102
7060.0	11831
7100.0	11567
7140.0	11310
7180.0	11060
7220.0	10818
7260.0	10581
7300.0	10351
7340.0	10129
7380.0	9910.6
7420.0	9678.2
7460.0	9287.5
7500.0	9066.3
7540.0	9089.3
7580.0	8906.3
7620.0	8721.7
7660.0	8541.1
7700.0	8365.2
7740.0	8194.1
7780.0	8027.0
7820.0	7863.9
7860.0	7705.5
7900.0	7550.8
7940.0	7399.7
7980.0	7252.8
8020.0	7109.3
8060.0	6969.2
8100.0	6832.5
8140.0	6699.5
8180.0	6569.1
8220.0	6442.4
8260.0	6318.6
8300.0	6197.8
8340.0	6079.9
8380.0	5964.3
8420.0	5852.0
8460.0	5741.9
8500.0	5634.9
8540.0	5530.0
8580.0	5427.7
8620.0	5327.4
8660.0	5229.9
8700.0	5134.3
8740.0	5040.8
8780.0	4949.5
8820.0	4860.4
8860.0	4773.1
8900.0	4687.8
8940.0	4604.8
8980.0	4522.9
9020.0	4443.4
9060.0	4365.2
9100.0	4288.9
9140.0	4214.5
9180.0	4141.2
9220.0	4070.1
9260.0	4000.0
9300.0	3931.7
9340.0	3864.4
9380.0	3799.2
9420.0	3734.9
9460.0	3671.9
9500.0	3610.4
9540.0	3550.3
9580.0	3491.3
9620.0	3433.4
9660.0	3376.9
9700.0	3321.3
9740.0	3267.2
9780.0	3213.9
9820.0	3161.7
9860.0	3110.8
9900.0	3060.6
9940.0	3011.7
9980.0	2963.5
10020	2916.4
20000	181.72
40000	11.170
60000	2.1831
80000	0.68531
